2023s/arch/project/02/trace.vcd
$date
  Sun Jun  4 14:45:04 2023
$end
$version
  GHDL v0
$end
$timescale
  1 fs
$end
$scope module standard $end
$upscope $end
$scope module textio $end
$upscope $end
$scope module std_logic_1164 $end
$upscope $end
$scope module numeric_std $end
$upscope $end
$scope module checkresultpkg $end
$var reg 32 ! g_dmem_128[31:0] $end
$var reg 32 " g_dmem_129[31:0] $end
$var reg 32 # g_dmem_130[31:0] $end
$var reg 32 $ g_dmem_131[31:0] $end
$upscope $end
$scope module env $end
$upscope $end
$scope module std_logic_arith $end
$upscope $end
$scope module std_logic_textio $end
$upscope $end
$scope module testbench $end
$var reg 32 % writedata[31:0] $end
$var reg 32 & dataadr[31:0] $end
$var reg 1 ' clk $end
$var reg 1 ( reset $end
$var reg 1 ) memwrite $end
$scope module dut $end
$var reg 1 * clk $end
$var reg 1 + reset $end
$var reg 32 , writedata[31:0] $end
$var reg 32 - dataadr[31:0] $end
$var reg 1 . memwrite $end
$var reg 32 / pc[31:0] $end
$var reg 32 0 instr[31:0] $end
$var reg 32 1 readdata[31:0] $end
$var reg 1 2 memwrite_s $end
$var reg 32 3 writedata_s[31:0] $end
$var reg 32 4 dataadr_s[31:0] $end
$scope module rvsingle $end
$var reg 1 5 clk $end
$var reg 1 6 reset $end
$var reg 32 7 pc[31:0] $end
$var reg 32 8 instr[31:0] $end
$var reg 1 9 memwrite $end
$var reg 32 : aluresult[31:0] $end
$var reg 32 ; writedata[31:0] $end
$var reg 32 < readdata[31:0] $end
$var reg 1 = alusrc $end
$var reg 1 > regwrite $end
$var reg 1 ? jump $end
$var reg 1 @ zero $end
$var reg 1 A pcsrc $end
$var reg 2 B resultsrc[1:0] $end
$var reg 2 C immsrc[1:0] $end
$var reg 3 D alucontrol[2:0] $end
$scope module c $end
$var reg 7 E op[6:0] $end
$var reg 3 F funct3[2:0] $end
$var reg 1 G funct7b5 $end
$var reg 1 H zero $end
$var reg 2 I resultsrc[1:0] $end
$var reg 1 J memwrite $end
$var reg 1 K pcsrc $end
$var reg 1 L alusrc $end
$var reg 1 M regwrite $end
$var reg 1 N jump $end
$var reg 2 O immsrc[1:0] $end
$var reg 3 P alucontrol[2:0] $end
$var reg 2 Q aluop[1:0] $end
$var reg 1 R branch $end
$var reg 1 S jump_s $end
$scope module md $end
$var reg 7 T op[6:0] $end
$var reg 2 U resultsrc[1:0] $end
$var reg 1 V memwrite $end
$var reg 1 W branch $end
$var reg 1 X alusrc $end
$var reg 1 Y regwrite $end
$var reg 1 Z jump $end
$var reg 2 [ immsrc[1:0] $end
$var reg 2 \ aluop[1:0] $end
$var reg 11 ] controls[10:0] $end
$upscope $end
$scope module ad $end
$var reg 1 ^ opb5 $end
$var reg 3 _ funct3[2:0] $end
$var reg 1 ` funct7b5 $end
$var reg 2 a aluop[1:0] $end
$var reg 3 b alucontrol[2:0] $end
$var reg 1 c rtypesub $end
$upscope $end
$upscope $end
$scope module dp $end
$var reg 1 d clk $end
$var reg 1 e reset $end
$var reg 2 f resultsrc[1:0] $end
$var reg 1 g pcsrc $end
$var reg 1 h alusrc $end
$var reg 1 i regwrite $end
$var reg 2 j immsrc[1:0] $end
$var reg 3 k alucontrol[2:0] $end
$var reg 1 l zero $end
$var reg 32 m pc[31:0] $end
$var reg 32 n instr[31:0] $end
$var reg 32 o aluresult[31:0] $end
$var reg 32 p writedata[31:0] $end
$var reg 32 q readdata[31:0] $end
$var reg 32 r pcnext[31:0] $end
$var reg 32 s pcplus4[31:0] $end
$var reg 32 t pctarget[31:0] $end
$var reg 32 u immext[31:0] $end
$var reg 32 v srca[31:0] $end
$var reg 32 w srcb[31:0] $end
$var reg 32 x result[31:0] $end
$var reg 32 y pc_s[31:0] $end
$var reg 32 z writedata_s[31:0] $end
$var reg 32 { aluresult_s[31:0] $end
$scope module pcreg $end
$var reg 1 | clk $end
$var reg 1 } reset $end
$var reg 32 !" d[31:0] $end
$var reg 32 "" q[31:0] $end
$upscope $end
$scope module pcadd4 $end
$var reg 32 #" a[31:0] $end
$var reg 32 $" b[31:0] $end
$var reg 32 %" y[31:0] $end
$upscope $end
$scope module pcaddbranch $end
$var reg 32 &" a[31:0] $end
$var reg 32 '" b[31:0] $end
$var reg 32 (" y[31:0] $end
$upscope $end
$scope module pcmux $end
$var reg 32 )" d0[31:0] $end
$var reg 32 *" d1[31:0] $end
$var reg 1 +" s $end
$var reg 32 ," y[31:0] $end
$upscope $end
$scope module rf $end
$var reg 1 -" clk $end
$var reg 1 ." we3 $end
$var reg 5 /" a1[4:0] $end
$var reg 5 0" a2[4:0] $end
$var reg 5 1" a3[4:0] $end
$var reg 32 2" wd3[31:0] $end
$var reg 32 3" rd1[31:0] $end
$var reg 32 4" rd2[31:0] $end
$comment mem is not handled $end
$upscope $end
$scope module ext $end
$var reg 25 5" instr[31:7] $end
$var reg 2 6" immsrc[1:0] $end
$var reg 32 7" immext[31:0] $end
$upscope $end
$scope module srcbmux $end
$var reg 32 8" d0[31:0] $end
$var reg 32 9" d1[31:0] $end
$var reg 1 :" s $end
$var reg 32 ;" y[31:0] $end
$upscope $end
$scope module mainalu $end
$var reg 32 <" a[31:0] $end
$var reg 32 =" b[31:0] $end
$var reg 3 >" alucontrol[2:0] $end
$var reg 32 ?" aluresult[31:0] $end
$var reg 1 @" zero $end
$var reg 32 A" condinvb[31:0] $end
$var reg 32 B" sum[31:0] $end
$var reg 32 C" alucontrol_0_tmp[31:0] $end
$var reg 32 D" aluresult_s[31:0] $end
$upscope $end
$scope module resultmux $end
$var reg 32 E" d0[31:0] $end
$var reg 32 F" d1[31:0] $end
$var reg 32 G" d2[31:0] $end
$var reg 2 H" s[1:0] $end
$var reg 32 I" y[31:0] $end
$upscope $end
$upscope $end
$upscope $end
$scope module imem1 $end
$var reg 32 J" a[31:0] $end
$var reg 32 K" rd[31:0] $end
$comment i_mem is not handled $end
$upscope $end
$scope module dmem1 $end
$var reg 1 L" clk $end
$var reg 1 M" we $end
$var reg 32 N" a[31:0] $end
$var reg 32 O" wd[31:0] $end
$var reg 32 P" rd[31:0] $end
$comment d_mem is not handled $end
$upscope $end
$upscope $end
$upscope $end
$enddefinitions $end
#0
b00000000000000000000000000000000 !
b00000000000000000000000000000000 "
b00000000000000000000000000000000 #
b00000000000000000000000000000000 $
b00000000000000000000000000000000 %
b00000000000000000000000000000000 &
1'
1(
0)
1*
1+
b00000000000000000000000000000000 ,
b00000000000000000000000000000000 -
0.
b00000000000000000000000000000000 /
b00000000000000000000010100010011 0
b00000000000000000000000000000000 1
02
b00000000000000000000000000000000 3
b00000000000000000000000000000000 4
15
16
b00000000000000000000000000000000 7
b00000000000000000000010100010011 8
09
b00000000000000000000000000000000 :
b00000000000000000000000000000000 ;
b00000000000000000000000000000000 <
1=
1>
0?
1@
0A
b00 B
b00 C
b000 D
b0010011 E
b000 F
0G
1H
b00 I
0J
0K
1L
1M
0N
b00 O
b000 P
b10 Q
0R
0S
b0010011 T
b00 U
0V
0W
1X
1Y
0Z
b00 [
b10 \
b10010000100 ]
0^
b000 _
0`
b10 a
b000 b
0c
1d
1e
b00 f
0g
1h
1i
b00 j
b000 k
1l
b00000000000000000000000000000000 m
b00000000000000000000010100010011 n
b00000000000000000000000000000000 o
b00000000000000000000000000000000 p
b00000000000000000000000000000000 q
b00000000000000000000000000000100 r
b00000000000000000000000000000100 s
b00000000000000000000000000000000 t
b00000000000000000000000000000000 u
b00000000000000000000000000000000 v
b00000000000000000000000000000000 w
b00000000000000000000000000000000 x
b00000000000000000000000000000000 y
b00000000000000000000000000000000 z
b00000000000000000000000000000000 {
1|
1}
b00000000000000000000000000000100 !"
b00000000000000000000000000000000 ""
b00000000000000000000000000000000 #"
b00000000000000000000000000000100 $"
b00000000000000000000000000000100 %"
b00000000000000000000000000000000 &"
b00000000000000000000000000000000 '"
b00000000000000000000000000000000 ("
b00000000000000000000000000000100 )"
b00000000000000000000000000000000 *"
0+"
b00000000000000000000000000000100 ,"
1-"
1."
b00000 /"
b00000 0"
b01010 1"
b00000000000000000000000000000000 2"
b00000000000000000000000000000000 3"
b00000000000000000000000000000000 4"
b0000000000000000000001010 5"
b00 6"
b00000000000000000000000000000000 7"
b00000000000000000000000000000000 8"
b00000000000000000000000000000000 9"
1:"
b00000000000000000000000000000000 ;"
b00000000000000000000000000000000 <"
b00000000000000000000000000000000 ="
b000 >"
b00000000000000000000000000000000 ?"
1@"
b00000000000000000000000000000000 A"
b00000000000000000000000000000000 B"
b00000000000000000000000000000000 C"
b00000000000000000000000000000000 D"
b00000000000000000000000000000000 E"
b00000000000000000000000000000000 F"
b00000000000000000000000000000100 G"
b00 H"
b00000000000000000000000000000000 I"
b00000000000000000000000000000000 J"
b00000000000000000000010100010011 K"
1L"
0M"
b00000000000000000000000000000000 N"
b00000000000000000000000000000000 O"
b00000000000000000000000000000000 P"
#5000000
0'
0*
05
0d
0|
0-"
0L"
#10000000
1'
1*
15
1d
1|
1-"
1L"
#15000000
0'
0*
05
0d
0|
0-"
0L"
#20000000
1'
1*
15
1d
1|
1-"
1L"
#22000000
0(
0+
06
0e
0}
#25000000
0'
0*
05
0d
0|
0-"
0L"
#30000000
1'
-)
1*
-.
b00000000000000000000000000000100 /
b00000000000000000000001100010111 0
-2
15
b00000000000000000000000000000100 7
b00000000000000000000001100010111 8
-9
-=
->
-?
XA
b-- B
b-- C
b0010111 E
b-- I
-J
XK
-L
-M
-N
b-- O
b-- Q
-R
-S
b0010111 T
b-- U
-V
-W
-X
-Y
-Z
b-- [
b-- \
b----------- ]
b-- a
1d
b-- f
Xg
-h
-i
b-- j
b00000000000000000000000000000100 m
b00000000000000000000001100010111 n
b00000000000000000000000000001000 r
b00000000000000000000000000001000 s
bXXXXXXXXXXXXXXXXXXXXXXXXXXXXXXXX t
b-------------------------------- u
b00000000000000000000000000000100 y
1|
b00000000000000000000000000001000 !"
b00000000000000000000000000000100 ""
b00000000000000000000000000000100 #"
b00000000000000000000000000001000 %"
b00000000000000000000000000000100 &"
b-------------------------------- '"
bXXXXXXXXXXXXXXXXXXXXXXXXXXXXXXXX ("
b00000000000000000000000000001000 )"
bXXXXXXXXXXXXXXXXXXXXXXXXXXXXXXXX *"
X+"
b00000000000000000000000000001000 ,"
1-"
-."
b00110 1"
b0000000000000000000000110 5"
b-- 6"
b-------------------------------- 7"
b-------------------------------- 9"
-:"
b00000000000000000000000000001000 G"
b-- H"
b00000000000000000000000000000100 J"
b00000000000000000000001100010111 K"
1L"
-M"
#35000000
0'
0*
05
0d
0|
0-"
0L"
#40000000
1'
1*
b00000000000000000000000000001000 /
b00000100000000110000000011100111 0
15
b00000000000000000000000000001000 7
b00000100000000110000000011100111 8
b1100111 E
b1100111 T
1^
1d
b00000000000000000000000000001000 m
b00000100000000110000000011100111 n
b00000000000000000000000000001100 r
b00000000000000000000000000001100 s
b00000000000000000000000000001000 y
1|
b00000000000000000000000000001100 !"
b00000000000000000000000000001000 ""
b00000000000000000000000000001000 #"
b00000000000000000000000000001100 %"
b00000000000000000000000000001000 &"
b00000000000000000000000000001100 )"
b00000000000000000000000000001100 ,"
1-"
b00110 /"
b00001 1"
b0000010000000011000000001 5"
b00000000000000000000000000001100 G"
b00000000000000000000000000001000 J"
b00000100000000110000000011100111 K"
1L"
#45000000
0'
0*
05
0d
0|
0-"
0L"
#50000000
b00000000000000000000001000000000 &
1'
1)
1*
b00000000000000000000001000000000 -
1.
b00000000000000000000000000001100 /
b00100000101100000010000000100011 0
12
b00000000000000000000001000000000 4
15
b00000000000000000000000000001100 7
b00100000101100000010000000100011 8
19
b00000000000000000000001000000000 :
1=
0>
0?
0@
0A
b00 B
b01 C
b000 D
b0100011 E
b010 F
0H
b00 I
1J
0K
1L
0M
0N
b01 O
b000 P
b00 Q
0R
0S
b0100011 T
b00 U
1V
0W
1X
0Y
0Z
b01 [
b00 \
b00111000000 ]
b010 _
b00 a
b000 b
1d
b00 f
0g
1h
0i
b01 j
b000 k
0l
b00000000000000000000000000001100 m
b00100000101100000010000000100011 n
b00000000000000000000001000000000 o
b00000000000000000000000000010000 r
b00000000000000000000000000010000 s
b00000000000000000000001000001100 t
b00000000000000000000001000000000 u
b00000000000000000000001000000000 w
b00000000000000000000001000000000 x
b00000000000000000000000000001100 y
b00000000000000000000001000000000 {
1|
b00000000000000000000000000010000 !"
b00000000000000000000000000001100 ""
b00000000000000000000000000001100 #"
b00000000000000000000000000010000 %"
b00000000000000000000000000001100 &"
b00000000000000000000001000000000 '"
b00000000000000000000001000001100 ("
b00000000000000000000000000010000 )"
b00000000000000000000001000001100 *"
0+"
b00000000000000000000000000010000 ,"
1-"
0."
b00000 /"
b01011 0"
b00000 1"
b00000000000000000000001000000000 2"
b0010000010110000001000000 5"
b01 6"
b00000000000000000000001000000000 7"
b00000000000000000000001000000000 9"
1:"
b00000000000000000000001000000000 ;"
b00000000000000000000001000000000 ="
b000 >"
b00000000000000000000001000000000 ?"
0@"
b00000000000000000000001000000000 A"
b00000000000000000000001000000000 B"
b00000000000000000000000000000000 C"
b00000000000000000000001000000000 D"
b00000000000000000000001000000000 E"
b00000000000000000000000000010000 G"
b00 H"
b00000000000000000000001000000000 I"
b00000000000000000000000000001100 J"
b00100000101100000010000000100011 K"
1L"
1M"
b00000000000000000000001000000000 N"
#55000000
0'
0*
05
0d
0|
0-"
0L"
#60000000
b11111111111111111111111111111111 &
1'
0)
1*
b11111111111111111111111111111111 -
0.
b00000000000000000000000000010000 /
b11111111111100000000010100010011 0
02
b11111111111111111111111111111111 4
15
b00000000000000000000000000010000 7
b11111111111100000000010100010011 8
09
b11111111111111111111111111111111 :
1>
b00 C
b0010011 E
b000 F
1G
b00 I
0J
1L
1M
b00 O
b10 Q
b0010011 T
b00 U
0V
0W
1X
1Y
0Z
b00 [
b10 \
b10010000100 ]
0^
b000 _
1`
b10 a
1d
1i
b00 j
b00000000000000000000000000010000 m
b11111111111100000000010100010011 n
b11111111111111111111111111111111 o
b00000000000000000000000000010100 r
b00000000000000000000000000010100 s
b00000000000000000000000000001111 t
b11111111111111111111111111111111 u
b11111111111111111111111111111111 w
b11111111111111111111111111111111 x
b00000000000000000000000000010000 y
b11111111111111111111111111111111 {
1|
b00000000000000000000000000010100 !"
b00000000000000000000000000010000 ""
b00000000000000000000000000010000 #"
b00000000000000000000000000010100 %"
b00000000000000000000000000010000 &"
b11111111111111111111111111111111 '"
b00000000000000000000000000001111 ("
b00000000000000000000000000010100 )"
b00000000000000000000000000001111 *"
b00000000000000000000000000010100 ,"
1-"
1."
b11111 0"
b01010 1"
b11111111111111111111111111111111 2"
b1111111111110000000001010 5"
b00 6"
b11111111111111111111111111111111 7"
b11111111111111111111111111111111 9"
b11111111111111111111111111111111 ;"
b11111111111111111111111111111111 ="
b11111111111111111111111111111111 ?"
b11111111111111111111111111111111 A"
b11111111111111111111111111111111 B"
b11111111111111111111111111111111 D"
b11111111111111111111111111111111 E"
b00000000000000000000000000010100 G"
b11111111111111111111111111111111 I"
b00000000000000000000000000010000 J"
b11111111111100000000010100010011 K"
1L"
0M"
b11111111111111111111111111111111 N"
#65000000
0'
0*
05
0d
0|
0-"
0L"
#70000000
b00000000000000000000000000000000 &
1'
-)
1*
b00000000000000000000000000000000 -
-.
b00000000000000000000000000010100 /
b00000000000000000000001100010111 0
-2
b00000000000000000000000000000000 4
15
b00000000000000000000000000010100 7
b00000000000000000000001100010111 8
-9
b00000000000000000000000000000000 :
-=
->
-?
1@
XA
b-- B
b-- C
b0010111 E
0G
1H
b-- I
-J
XK
-L
-M
-N
b-- O
b-- Q
-R
-S
b0010111 T
b-- U
-V
-W
-X
-Y
-Z
b-- [
b-- \
b----------- ]
0`
b-- a
1d
b-- f
Xg
-h
-i
b-- j
1l
b00000000000000000000000000010100 m
b00000000000000000000001100010111 n
b00000000000000000000000000000000 o
b00000000000000000000000000011000 r
b00000000000000000000000000011000 s
bXXXXXXXXXXXXXXXXXXXXXXXXXXXXXXXX t
b-------------------------------- u
b00000000000000000000000000000000 w
b00000000000000000000000000010100 y
b00000000000000000000000000000000 {
1|
b00000000000000000000000000011000 !"
b00000000000000000000000000010100 ""
b00000000000000000000000000010100 #"
b00000000000000000000000000011000 %"
b00000000000000000000000000010100 &"
b-------------------------------- '"
bXXXXXXXXXXXXXXXXXXXXXXXXXXXXXXXX ("
b00000000000000000000000000011000 )"
bXXXXXXXXXXXXXXXXXXXXXXXXXXXXXXXX *"
X+"
b00000000000000000000000000011000 ,"
1-"
-."
b00000 0"
b00110 1"
b0000000000000000000000110 5"
b-- 6"
b-------------------------------- 7"
b-------------------------------- 9"
-:"
b00000000000000000000000000000000 ;"
b00000000000000000000000000000000 ="
b00000000000000000000000000000000 ?"
1@"
b00000000000000000000000000000000 A"
b00000000000000000000000000000000 B"
b00000000000000000000000000000000 D"
b00000000000000000000000000000000 E"
b00000000000000000000000000011000 G"
b-- H"
b00000000000000000000000000010100 J"
b00000000000000000000001100010111 K"
1L"
-M"
b00000000000000000000000000000000 N"
#75000000
0'
0*
05
0d
0|
0-"
0L"
#80000000
1'
1*
b00000000000000000000000000011000 /
b00000011000000110000000011100111 0
15
b00000000000000000000000000011000 7
b00000011000000110000000011100111 8
b1100111 E
b1100111 T
1^
1d
b00000000000000000000000000011000 m
b00000011000000110000000011100111 n
b00000000000000000000000000011100 r
b00000000000000000000000000011100 s
b00000000000000000000000000011000 y
1|
b00000000000000000000000000011100 !"
b00000000000000000000000000011000 ""
b00000000000000000000000000011000 #"
b00000000000000000000000000011100 %"
b00000000000000000000000000011000 &"
b00000000000000000000000000011100 )"
b00000000000000000000000000011100 ,"
1-"
b00110 /"
b10000 0"
b00001 1"
b0000001100000011000000001 5"
b00000000000000000000000000011100 G"
b00000000000000000000000000011000 J"
b00000011000000110000000011100111 K"
1L"
#85000000
0'
0*
05
0d
0|
0-"
0L"
#90000000
b00000000000000000000001000000100 &
1'
1)
1*
b00000000000000000000001000000100 -
1.
b00000000000000000000000000011100 /
b00100000101100000010001000100011 0
12
b00000000000000000000001000000100 4
15
b00000000000000000000000000011100 7
b00100000101100000010001000100011 8
19
b00000000000000000000001000000100 :
1=
0>
0?
0@
0A
b00 B
b01 C
b000 D
b0100011 E
b010 F
0H
b00 I
1J
0K
1L
0M
0N
b01 O
b000 P
b00 Q
0R
0S
b0100011 T
b00 U
1V
0W
1X
0Y
0Z
b01 [
b00 \
b00111000000 ]
b010 _
b00 a
b000 b
1d
b00 f
0g
1h
0i
b01 j
b000 k
0l
b00000000000000000000000000011100 m
b00100000101100000010001000100011 n
b00000000000000000000001000000100 o
b00000000000000000000000000100000 r
b00000000000000000000000000100000 s
b00000000000000000000001000100000 t
b00000000000000000000001000000100 u
b00000000000000000000001000000100 w
b00000000000000000000001000000100 x
b00000000000000000000000000011100 y
b00000000000000000000001000000100 {
1|
b00000000000000000000000000100000 !"
b00000000000000000000000000011100 ""
b00000000000000000000000000011100 #"
b00000000000000000000000000100000 %"
b00000000000000000000000000011100 &"
b00000000000000000000001000000100 '"
b00000000000000000000001000100000 ("
b00000000000000000000000000100000 )"
b00000000000000000000001000100000 *"
0+"
b00000000000000000000000000100000 ,"
1-"
0."
b00000 /"
b01011 0"
b00100 1"
b00000000000000000000001000000100 2"
b0010000010110000001000100 5"
b01 6"
b00000000000000000000001000000100 7"
b00000000000000000000001000000100 9"
1:"
b00000000000000000000001000000100 ;"
b00000000000000000000001000000100 ="
b000 >"
b00000000000000000000001000000100 ?"
0@"
b00000000000000000000001000000100 A"
b00000000000000000000001000000100 B"
b00000000000000000000000000000000 C"
b00000000000000000000001000000100 D"
b00000000000000000000001000000100 E"
b00000000000000000000000000100000 G"
b00 H"
b00000000000000000000001000000100 I"
b00000000000000000000000000011100 J"
b00100000101100000010001000100011 K"
1L"
1M"
b00000000000000000000001000000100 N"
#95000000
0'
0*
05
0d
0|
0-"
0L"
#100000000
b00000000000000000000000001100010 &
1'
0)
1*
b00000000000000000000000001100010 -
0.
b00000000000000000000000000100000 /
b00000110001000000000010100010011 0
02
b00000000000000000000000001100010 4
15
b00000000000000000000000000100000 7
b00000110001000000000010100010011 8
09
b00000000000000000000000001100010 :
1>
b00 C
b0010011 E
b000 F
b00 I
0J
1L
1M
b00 O
b10 Q
b0010011 T
b00 U
0V
0W
1X
1Y
0Z
b00 [
b10 \
b10010000100 ]
0^
b000 _
b10 a
1d
1i
b00 j
b00000000000000000000000000100000 m
b00000110001000000000010100010011 n
b00000000000000000000000001100010 o
b00000000000000000000000000100100 r
b00000000000000000000000000100100 s
b00000000000000000000000010000010 t
b00000000000000000000000001100010 u
b00000000000000000000000001100010 w
b00000000000000000000000001100010 x
b00000000000000000000000000100000 y
b00000000000000000000000001100010 {
1|
b00000000000000000000000000100100 !"
b00000000000000000000000000100000 ""
b00000000000000000000000000100000 #"
b00000000000000000000000000100100 %"
b00000000000000000000000000100000 &"
b00000000000000000000000001100010 '"
b00000000000000000000000010000010 ("
b00000000000000000000000000100100 )"
b00000000000000000000000010000010 *"
b00000000000000000000000000100100 ,"
1-"
1."
b00010 0"
b01010 1"
b00000000000000000000000001100010 2"
b0000011000100000000001010 5"
b00 6"
b00000000000000000000000001100010 7"
b00000000000000000000000001100010 9"
b00000000000000000000000001100010 ;"
b00000000000000000000000001100010 ="
b00000000000000000000000001100010 ?"
b00000000000000000000000001100010 A"
b00000000000000000000000001100010 B"
b00000000000000000000000001100010 D"
b00000000000000000000000001100010 E"
b00000000000000000000000000100100 G"
b00000000000000000000000001100010 I"
b00000000000000000000000000100000 J"
b00000110001000000000010100010011 K"
1L"
0M"
b00000000000000000000000001100010 N"
#105000000
0'
0*
05
0d
0|
0-"
0L"
#110000000
b00000000000000000000000000000000 &
1'
-)
1*
b00000000000000000000000000000000 -
-.
b00000000000000000000000000100100 /
b00000000000000000000001100010111 0
-2
b00000000000000000000000000000000 4
15
b00000000000000000000000000100100 7
b00000000000000000000001100010111 8
-9
b00000000000000000000000000000000 :
-=
->
-?
1@
XA
b-- B
b-- C
b0010111 E
1H
b-- I
-J
XK
-L
-M
-N
b-- O
b-- Q
-R
-S
b0010111 T
b-- U
-V
-W
-X
-Y
-Z
b-- [
b-- \
b----------- ]
b-- a
1d
b-- f
Xg
-h
-i
b-- j
1l
b00000000000000000000000000100100 m
b00000000000000000000001100010111 n
b00000000000000000000000000000000 o
b00000000000000000000000000101000 r
b00000000000000000000000000101000 s
bXXXXXXXXXXXXXXXXXXXXXXXXXXXXXXXX t
b-------------------------------- u
b00000000000000000000000000000000 w
b00000000000000000000000000100100 y
b00000000000000000000000000000000 {
1|
b00000000000000000000000000101000 !"
b00000000000000000000000000100100 ""
b00000000000000000000000000100100 #"
b00000000000000000000000000101000 %"
b00000000000000000000000000100100 &"
b-------------------------------- '"
bXXXXXXXXXXXXXXXXXXXXXXXXXXXXXXXX ("
b00000000000000000000000000101000 )"
bXXXXXXXXXXXXXXXXXXXXXXXXXXXXXXXX *"
X+"
b00000000000000000000000000101000 ,"
1-"
-."
b00000 0"
b00110 1"
b0000000000000000000000110 5"
b-- 6"
b-------------------------------- 7"
b-------------------------------- 9"
-:"
b00000000000000000000000000000000 ;"
b00000000000000000000000000000000 ="
b00000000000000000000000000000000 ?"
1@"
b00000000000000000000000000000000 A"
b00000000000000000000000000000000 B"
b00000000000000000000000000000000 D"
b00000000000000000000000000000000 E"
b00000000000000000000000000101000 G"
b-- H"
b00000000000000000000000000100100 J"
b00000000000000000000001100010111 K"
1L"
-M"
b00000000000000000000000000000000 N"
#115000000
0'
0*
05
0d
0|
0-"
0L"
#120000000
1'
1*
b00000000000000000000000000101000 /
b00000010000000110000000011100111 0
15
b00000000000000000000000000101000 7
b00000010000000110000000011100111 8
b1100111 E
b1100111 T
1^
1d
b00000000000000000000000000101000 m
b00000010000000110000000011100111 n
b00000000000000000000000000101100 r
b00000000000000000000000000101100 s
b00000000000000000000000000101000 y
1|
b00000000000000000000000000101100 !"
b00000000000000000000000000101000 ""
b00000000000000000000000000101000 #"
b00000000000000000000000000101100 %"
b00000000000000000000000000101000 &"
b00000000000000000000000000101100 )"
b00000000000000000000000000101100 ,"
1-"
b00110 /"
b00001 1"
b0000001000000011000000001 5"
b00000000000000000000000000101100 G"
b00000000000000000000000000101000 J"
b00000010000000110000000011100111 K"
1L"
#125000000
0'
0*
05
0d
0|
0-"
0L"
#130000000
b00000000000000000000001000001000 &
1'
1)
1*
b00000000000000000000001000001000 -
1.
b00000000000000000000000000101100 /
b00100000101100000010010000100011 0
12
b00000000000000000000001000001000 4
15
b00000000000000000000000000101100 7
b00100000101100000010010000100011 8
19
b00000000000000000000001000001000 :
1=
0>
0?
0@
0A
b00 B
b01 C
b000 D
b0100011 E
b010 F
0H
b00 I
1J
0K
1L
0M
0N
b01 O
b000 P
b00 Q
0R
0S
b0100011 T
b00 U
1V
0W
1X
0Y
0Z
b01 [
b00 \
b00111000000 ]
b010 _
b00 a
b000 b
1d
b00 f
0g
1h
0i
b01 j
b000 k
0l
b00000000000000000000000000101100 m
b00100000101100000010010000100011 n
b00000000000000000000001000001000 o
b00000000000000000000000000110000 r
b00000000000000000000000000110000 s
b00000000000000000000001000110100 t
b00000000000000000000001000001000 u
b00000000000000000000001000001000 w
b00000000000000000000001000001000 x
b00000000000000000000000000101100 y
b00000000000000000000001000001000 {
1|
b00000000000000000000000000110000 !"
b00000000000000000000000000101100 ""
b00000000000000000000000000101100 #"
b00000000000000000000000000110000 %"
b00000000000000000000000000101100 &"
b00000000000000000000001000001000 '"
b00000000000000000000001000110100 ("
b00000000000000000000000000110000 )"
b00000000000000000000001000110100 *"
0+"
b00000000000000000000000000110000 ,"
1-"
0."
b00000 /"
b01011 0"
b01000 1"
b00000000000000000000001000001000 2"
b0010000010110000001001000 5"
b01 6"
b00000000000000000000001000001000 7"
b00000000000000000000001000001000 9"
1:"
b00000000000000000000001000001000 ;"
b00000000000000000000001000001000 ="
b000 >"
b00000000000000000000001000001000 ?"
0@"
b00000000000000000000001000001000 A"
b00000000000000000000001000001000 B"
b00000000000000000000000000000000 C"
b00000000000000000000001000001000 D"
b00000000000000000000001000001000 E"
b00000000000000000000000000110000 G"
b00 H"
b00000000000000000000001000001000 I"
b00000000000000000000000000101100 J"
b00100000101100000010010000100011 K"
1L"
1M"
b00000000000000000000001000001000 N"
#135000000
0'
0*
05
0d
0|
0-"
0L"
#140000000
b00000000000000000000000001100010 %
b00000000000000000000000010101010 &
1'
0)
1*
b00000000000000000000000001100010 ,
b00000000000000000000000010101010 -
0.
b00000000000000000000000000110000 /
b00001010101000000000010100010011 0
02
b00000000000000000000000001100010 3
b00000000000000000000000010101010 4
15
b00000000000000000000000000110000 7
b00001010101000000000010100010011 8
09
b00000000000000000000000010101010 :
b00000000000000000000000001100010 ;
1>
b00 C
b0010011 E
b000 F
b00 I
0J
1L
1M
b00 O
b10 Q
b0010011 T
b00 U
0V
0W
1X
1Y
0Z
b00 [
b10 \
b10010000100 ]
0^
b000 _
b10 a
1d
1i
b00 j
b00000000000000000000000000110000 m
b00001010101000000000010100010011 n
b00000000000000000000000010101010 o
b00000000000000000000000001100010 p
b00000000000000000000000000110100 r
b00000000000000000000000000110100 s
b00000000000000000000000011011010 t
b00000000000000000000000010101010 u
b00000000000000000000000010101010 w
b00000000000000000000000010101010 x
b00000000000000000000000000110000 y
b00000000000000000000000001100010 z
b00000000000000000000000010101010 {
1|
b00000000000000000000000000110100 !"
b00000000000000000000000000110000 ""
b00000000000000000000000000110000 #"
b00000000000000000000000000110100 %"
b00000000000000000000000000110000 &"
b00000000000000000000000010101010 '"
b00000000000000000000000011011010 ("
b00000000000000000000000000110100 )"
b00000000000000000000000011011010 *"
b00000000000000000000000000110100 ,"
1-"
1."
b01010 0"
b01010 1"
b00000000000000000000000010101010 2"
b00000000000000000000000001100010 4"
b0000101010100000000001010 5"
b00 6"
b00000000000000000000000010101010 7"
b00000000000000000000000001100010 8"
b00000000000000000000000010101010 9"
b00000000000000000000000010101010 ;"
b00000000000000000000000010101010 ="
b00000000000000000000000010101010 ?"
b00000000000000000000000010101010 A"
b00000000000000000000000010101010 B"
b00000000000000000000000010101010 D"
b00000000000000000000000010101010 E"
b00000000000000000000000000110100 G"
b00000000000000000000000010101010 I"
b00000000000000000000000000110000 J"
b00001010101000000000010100010011 K"
1L"
0M"
b00000000000000000000000010101010 N"
b00000000000000000000000001100010 O"
#145000000
0'
0*
05
0d
0|
0-"
0L"
