2023s/arch/project/02/trace.vcd
$date
  Sun Jun  4 19:25:07 2023
$end
$version
  GHDL v0
$end
$timescale
  1 fs
$end
$scope module standard $end
$upscope $end
$scope module textio $end
$upscope $end
$scope module std_logic_1164 $end
$upscope $end
$scope module numeric_std $end
$upscope $end
$scope module checkresultpkg $end
$var reg 32 ! g_dmem_128[31:0] $end
$var reg 32 " g_dmem_129[31:0] $end
$var reg 32 # g_dmem_130[31:0] $end
$var reg 32 $ g_dmem_131[31:0] $end
$upscope $end
$scope module env $end
$upscope $end
$scope module std_logic_arith $end
$upscope $end
$scope module std_logic_textio $end
$upscope $end
$scope module testbench $end
$var reg 32 % writedata[31:0] $end
$var reg 32 & dataadr[31:0] $end
$var reg 1 ' clk $end
$var reg 1 ( reset $end
$var reg 1 ) memwrite $end
$scope module dut $end
$var reg 1 * clk $end
$var reg 1 + reset $end
$var reg 32 , writedata[31:0] $end
$var reg 32 - dataadr[31:0] $end
$var reg 1 . memwrite $end
$var reg 32 / pc[31:0] $end
$var reg 32 0 instr[31:0] $end
$var reg 32 1 readdata[31:0] $end
$var reg 1 2 memwrite_s $end
$var reg 32 3 writedata_s[31:0] $end
$var reg 32 4 dataadr_s[31:0] $end
$scope module rvsingle $end
$var reg 1 5 clk $end
$var reg 1 6 reset $end
$var reg 32 7 pc[31:0] $end
$var reg 32 8 instr[31:0] $end
$var reg 1 9 memwrite $end
$var reg 32 : aluresult[31:0] $end
$var reg 32 ; writedata[31:0] $end
$var reg 32 < readdata[31:0] $end
$var reg 1 = alusrc $end
$var reg 1 > regwrite $end
$var reg 1 ? jump $end
$var reg 1 @ zero $end
$var reg 1 A negative $end
$var reg 1 B pcsrc $end
$var reg 2 C resultsrc[1:0] $end
$var reg 3 D alucontrol[2:0] $end
$var reg 3 E immsrc[2:0] $end
$var reg 1 F pctargetsrc_s $end
$scope module c $end
$var reg 7 G op[6:0] $end
$var reg 3 H funct3[2:0] $end
$var reg 1 I funct7b5 $end
$var reg 1 J zero $end
$var reg 1 K negative $end
$var reg 2 L resultsrc[1:0] $end
$var reg 1 M memwrite $end
$var reg 1 N pcsrc $end
$var reg 1 O alusrc $end
$var reg 1 P regwrite $end
$var reg 1 Q jump $end
$var reg 3 R immsrc[2:0] $end
$var reg 3 S alucontrol[2:0] $end
$var reg 1 T pctargetsrc $end
$var reg 2 U aluop[1:0] $end
$var reg 1 V branch $end
$var reg 1 W jump_s $end
$var reg 1 X branchcontrol $end
$scope module md $end
$var reg 7 Y op[6:0] $end
$var reg 2 Z resultsrc[1:0] $end
$var reg 1 [ memwrite $end
$var reg 1 \ branch $end
$var reg 1 ] alusrc $end
$var reg 1 ^ regwrite $end
$var reg 1 _ jump $end
$var reg 3 ` immsrc[2:0] $end
$var reg 2 a aluop[1:0] $end
$var reg 1 b pctargetsrc $end
$var reg 13 c controls[12:0] $end
$upscope $end
$scope module ad $end
$var reg 1 d opb5 $end
$var reg 3 e funct3[2:0] $end
$var reg 1 f funct7b5 $end
$var reg 2 g aluop[1:0] $end
$var reg 3 h alucontrol[2:0] $end
$var reg 1 i rtypesub $end
$upscope $end
$upscope $end
$scope module dp $end
$var reg 1 j clk $end
$var reg 1 k reset $end
$var reg 2 l resultsrc[1:0] $end
$var reg 1 m pcsrc $end
$var reg 1 n alusrc $end
$var reg 1 o regwrite $end
$var reg 3 p immsrc[2:0] $end
$var reg 3 q alucontrol[2:0] $end
$var reg 1 r zero $end
$var reg 1 s negative $end
$var reg 32 t pc[31:0] $end
$var reg 32 u instr[31:0] $end
$var reg 32 v aluresult[31:0] $end
$var reg 32 w writedata[31:0] $end
$var reg 32 x readdata[31:0] $end
$var reg 1 y pctargetsrc $end
$var reg 32 z pcnext[31:0] $end
$var reg 32 { pcplus4[31:0] $end
$var reg 32 | pctarget_orig[31:0] $end
$var reg 32 } pctarget[31:0] $end
$var reg 32 !" immext[31:0] $end
$var reg 32 "" srca[31:0] $end
$var reg 32 #" srcb[31:0] $end
$var reg 32 $" result[31:0] $end
$var reg 32 %" pc_s[31:0] $end
$var reg 32 &" writedata_s[31:0] $end
$var reg 32 '" aluresult_s[31:0] $end
$scope module srcbmux $end
$var reg 32 (" d0[31:0] $end
$var reg 32 )" d1[31:0] $end
$var reg 1 *" s $end
$var reg 32 +" y[31:0] $end
$upscope $end
$scope module mainalu $end
$var reg 32 ," a[31:0] $end
$var reg 32 -" b[31:0] $end
$var reg 3 ." alucontrol[2:0] $end
$var reg 32 /" aluresult[31:0] $end
$var reg 1 0" zero $end
$var reg 1 1" negative $end
$var reg 32 2" condinvb[31:0] $end
$var reg 32 3" sum[31:0] $end
$var reg 32 4" alucontrol_0_tmp[31:0] $end
$var reg 32 5" aluresult_s[31:0] $end
$upscope $end
$scope module resultmux $end
$var reg 32 6" d0[31:0] $end
$var reg 32 7" d1[31:0] $end
$var reg 32 8" d2[31:0] $end
$var reg 32 9" d3[31:0] $end
$var reg 2 :" s[1:0] $end
$var reg 32 ;" y[31:0] $end
$upscope $end
$scope module rf $end
$var reg 1 <" clk $end
$var reg 1 =" we3 $end
$var reg 5 >" a1[4:0] $end
$var reg 5 ?" a2[4:0] $end
$var reg 5 @" a3[4:0] $end
$var reg 32 A" wd3[31:0] $end
$var reg 32 B" rd1[31:0] $end
$var reg 32 C" rd2[31:0] $end
$comment mem is not handled $end
$upscope $end
$scope module ext $end
$var reg 25 D" instr[31:7] $end
$var reg 3 E" immsrc[2:0] $end
$var reg 32 F" immext[31:0] $end
$upscope $end
$scope module pcreg $end
$var reg 1 G" clk $end
$var reg 1 H" reset $end
$var reg 32 I" d[31:0] $end
$var reg 32 J" q[31:0] $end
$upscope $end
$scope module pcadd4 $end
$var reg 32 K" a[31:0] $end
$var reg 32 L" b[31:0] $end
$var reg 32 M" y[31:0] $end
$upscope $end
$scope module pcaddbranch $end
$var reg 32 N" a[31:0] $end
$var reg 32 O" b[31:0] $end
$var reg 32 P" y[31:0] $end
$upscope $end
$scope module pctargetmux $end
$var reg 32 Q" d0[31:0] $end
$var reg 32 R" d1[31:0] $end
$var reg 1 S" s $end
$var reg 32 T" y[31:0] $end
$upscope $end
$scope module pcmux $end
$var reg 32 U" d0[31:0] $end
$var reg 32 V" d1[31:0] $end
$var reg 1 W" s $end
$var reg 32 X" y[31:0] $end
$upscope $end
$upscope $end
$upscope $end
$scope module imem1 $end
$var reg 32 Y" a[31:0] $end
$var reg 32 Z" rd[31:0] $end
$comment i_mem is not handled $end
$upscope $end
$scope module dmem1 $end
$var reg 1 [" clk $end
$var reg 1 \" we $end
$var reg 32 ]" a[31:0] $end
$var reg 32 ^" wd[31:0] $end
$var reg 32 _" rd[31:0] $end
$comment d_mem is not handled $end
$upscope $end
$upscope $end
$upscope $end
$enddefinitions $end
#0
b00000000000000000000000000000000 !
b00000000000000000000000000000000 "
b00000000000000000000000000000000 #
b00000000000000000000000000000000 $
b00000000000000000000000000000000 %
b00000000000000000000000000000000 &
1'
1(
0)
1*
1+
b00000000000000000000000000000000 ,
b00000000000000000000000000000000 -
0.
b00000000000000000000000000000000 /
b00000000000000000000010100010011 0
b00000000000000000000000000000000 1
02
b00000000000000000000000000000000 3
b00000000000000000000000000000000 4
15
16
b00000000000000000000000000000000 7
b00000000000000000000010100010011 8
09
b00000000000000000000000000000000 :
b00000000000000000000000000000000 ;
b00000000000000000000000000000000 <
1=
1>
0?
1@
0A
0B
b00 C
b000 D
b000 E
-F
b0010011 G
b000 H
0I
1J
0K
b00 L
0M
0N
1O
1P
0Q
b000 R
b000 S
-T
b10 U
0V
0W
1X
b0010011 Y
b00 Z
0[
0\
1]
1^
0_
b000 `
b10 a
-b
b100010000100- c
0d
b000 e
0f
b10 g
b000 h
0i
1j
1k
b00 l
0m
1n
1o
b000 p
b000 q
1r
0s
b00000000000000000000000000000000 t
b00000000000000000000010100010011 u
b00000000000000000000000000000000 v
b00000000000000000000000000000000 w
b00000000000000000000000000000000 x
-y
b00000000000000000000000000000100 z
b00000000000000000000000000000100 {
b00000000000000000000000000000000 |
b00000000000000000000000000000000 }
b00000000000000000000000000000000 !"
b00000000000000000000000000000000 ""
b00000000000000000000000000000000 #"
b00000000000000000000000000000000 $"
b00000000000000000000000000000000 %"
b00000000000000000000000000000000 &"
b00000000000000000000000000000000 '"
b00000000000000000000000000000000 ("
b00000000000000000000000000000000 )"
1*"
b00000000000000000000000000000000 +"
b00000000000000000000000000000000 ,"
b00000000000000000000000000000000 -"
b000 ."
b00000000000000000000000000000000 /"
10"
01"
b00000000000000000000000000000000 2"
b00000000000000000000000000000000 3"
b00000000000000000000000000000000 4"
b00000000000000000000000000000000 5"
b00000000000000000000000000000000 6"
b00000000000000000000000000000000 7"
b00000000000000000000000000000100 8"
b00000000000000000000000000000000 9"
b00 :"
b00000000000000000000000000000000 ;"
1<"
1="
b00000 >"
b00000 ?"
b01010 @"
b00000000000000000000000000000000 A"
b00000000000000000000000000000000 B"
b00000000000000000000000000000000 C"
b0000000000000000000001010 D"
b000 E"
b00000000000000000000000000000000 F"
1G"
1H"
b00000000000000000000000000000100 I"
b00000000000000000000000000000000 J"
b00000000000000000000000000000000 K"
b00000000000000000000000000000100 L"
b00000000000000000000000000000100 M"
b00000000000000000000000000000000 N"
b00000000000000000000000000000000 O"
b00000000000000000000000000000000 P"
b00000000000000000000000000000000 Q"
b00000000000000000000000000000000 R"
-S"
b00000000000000000000000000000000 T"
b00000000000000000000000000000100 U"
b00000000000000000000000000000000 V"
0W"
b00000000000000000000000000000100 X"
b00000000000000000000000000000000 Y"
b00000000000000000000010100010011 Z"
1["
0\"
b00000000000000000000000000000000 ]"
b00000000000000000000000000000000 ^"
b00000000000000000000000000000000 _"
#5000000
0'
0*
05
0j
0<"
0G"
0["
#10000000
1'
1*
15
1j
1<"
1G"
1["
#15000000
0'
0*
05
0j
0<"
0G"
0["
#20000000
1'
1*
15
1j
1<"
1G"
1["
#22000000
0(
0+
06
0k
0H"
#25000000
0'
0*
05
0j
0<"
0G"
0["
#30000000
1'
1*
b00000000000000000000000000000100 /
b00000000000000000000001100010111 0
15
b00000000000000000000000000000100 7
b00000000000000000000001100010111 8
09
-=
b11 C
b100 E
b0010111 G
b11 L
0M
-O
1P
b100 R
-T
b-- U
b0010111 Y
b11 Z
0[
0\
-]
1^
0_
b100 `
b-- a
-b
b1100-0110--0- c
b-- g
1j
b11 l
-n
b100 p
b00000000000000000000000000000100 t
b00000000000000000000001100010111 u
b00000000000000000000000000001000 z
b00000000000000000000000000001000 {
b00000000000000000000000000000100 |
b00000000000000000000000000000100 }
b00000000000000000000000000000100 $"
b00000000000000000000000000000100 %"
-*"
b00000000000000000000000000001000 8"
b00000000000000000000000000000100 9"
b11 :"
b00000000000000000000000000000100 ;"
1<"
b00110 @"
b00000000000000000000000000000100 A"
b0000000000000000000000110 D"
b100 E"
1G"
b00000000000000000000000000001000 I"
b00000000000000000000000000000100 J"
b00000000000000000000000000000100 K"
b00000000000000000000000000001000 M"
b00000000000000000000000000000100 N"
b00000000000000000000000000000100 P"
b00000000000000000000000000000100 Q"
b00000000000000000000000000000100 T"
b00000000000000000000000000001000 U"
b00000000000000000000000000000100 V"
b00000000000000000000000000001000 X"
b00000000000000000000000000000100 Y"
b00000000000000000000001100010111 Z"
1["
#35000000
0'
0*
05
0j
0<"
0G"
0["
#40000000
b00000000000000000000000001000100 &
1'
1*
b00000000000000000000000001000100 -
b00000000000000000000000000001000 /
b00000100000000110000000011100111 0
b00000000000000000000000001000100 4
15
b00000000000000000000000000001000 7
b00000100000000110000000011100111 8
09
b00000000000000000000000001000100 :
1=
1?
0@
1B
b10 C
b000 E
1F
b1100111 G
0J
b10 L
0M
1N
1O
1P
1Q
b000 R
1T
1W
0X
b1100111 Y
b10 Z
0[
0\
1]
1^
1_
b000 `
b-- a
1b
b100010100--11 c
1d
1j
b10 l
1m
1n
b000 p
0r
b00000000000000000000000000001000 t
b00000100000000110000000011100111 u
b00000000000000000000000001000100 v
1y
b00000000000000000000000001000100 z
b00000000000000000000000000001100 {
b00000000000000000000000001001000 |
b00000000000000000000000001000100 }
b00000000000000000000000001000000 !"
b00000000000000000000000000000100 ""
b00000000000000000000000001000000 #"
b00000000000000000000000000001100 $"
b00000000000000000000000000001000 %"
b00000000000000000000000001000100 '"
b00000000000000000000000001000000 )"
1*"
b00000000000000000000000001000000 +"
b00000000000000000000000000000100 ,"
b00000000000000000000000001000000 -"
b00000000000000000000000001000100 /"
00"
b00000000000000000000000001000000 2"
b00000000000000000000000001000100 3"
b00000000000000000000000001000100 5"
b00000000000000000000000001000100 6"
b00000000000000000000000000001100 8"
b00000000000000000000000001000100 9"
b10 :"
b00000000000000000000000000001100 ;"
1<"
b00110 >"
b00001 @"
b00000000000000000000000000001100 A"
b00000000000000000000000000000100 B"
b0000010000000011000000001 D"
b000 E"
b00000000000000000000000001000000 F"
1G"
b00000000000000000000000001000100 I"
b00000000000000000000000000001000 J"
b00000000000000000000000000001000 K"
b00000000000000000000000000001100 M"
b00000000000000000000000000001000 N"
b00000000000000000000000001000000 O"
b00000000000000000000000001001000 P"
b00000000000000000000000001001000 Q"
b00000000000000000000000001000100 R"
1S"
b00000000000000000000000001000100 T"
b00000000000000000000000000001100 U"
b00000000000000000000000001000100 V"
1W"
b00000000000000000000000001000100 X"
b00000000000000000000000000001000 Y"
b00000100000000110000000011100111 Z"
1["
b00000000000000000000000001000100 ]"
#45000000
0'
0*
05
0j
0<"
0G"
0["
#50000000
b00000000000000000000000000000000 &
1'
1*
b00000000000000000000000000000000 -
b00000000000000000000000001000100 /
b00000000000000000000010110010011 0
b00000000000000000000000000000000 4
15
b00000000000000000000000001000100 7
b00000000000000000000010110010011 8
09
b00000000000000000000000000000000 :
0?
1@
0B
b00 C
-F
b0010011 G
1J
b00 L
0M
0N
1O
1P
0Q
b000 R
-T
b10 U
0W
1X
b0010011 Y
b00 Z
0[
0\
1]
1^
0_
b000 `
b10 a
-b
b100010000100- c
0d
b10 g
1j
b00 l
0m
1r
b00000000000000000000000001000100 t
b00000000000000000000010110010011 u
b00000000000000000000000000000000 v
-y
b00000000000000000000000001001000 z
b00000000000000000000000001001000 {
b00000000000000000000000001000100 |
b00000000000000000000000000000000 !"
b00000000000000000000000000000000 ""
b00000000000000000000000000000000 #"
b00000000000000000000000000000000 $"
b00000000000000000000000001000100 %"
b00000000000000000000000000000000 '"
b00000000000000000000000000000000 )"
b00000000000000000000000000000000 +"
b00000000000000000000000000000000 ,"
b00000000000000000000000000000000 -"
b00000000000000000000000000000000 /"
10"
b00000000000000000000000000000000 2"
b00000000000000000000000000000000 3"
b00000000000000000000000000000000 5"
b00000000000000000000000000000000 6"
b00000000000000000000000001001000 8"
b00 :"
b00000000000000000000000000000000 ;"
1<"
b00000 >"
b01011 @"
b00000000000000000000000000000000 A"
b00000000000000000000000000000000 B"
b0000000000000000000001011 D"
b00000000000000000000000000000000 F"
1G"
b00000000000000000000000001001000 I"
b00000000000000000000000001000100 J"
b00000000000000000000000001000100 K"
b00000000000000000000000001001000 M"
b00000000000000000000000001000100 N"
b00000000000000000000000000000000 O"
b00000000000000000000000001000100 P"
b00000000000000000000000001000100 Q"
b00000000000000000000000000000000 R"
-S"
b00000000000000000000000001001000 U"
0W"
b00000000000000000000000001001000 X"
b00000000000000000000000001000100 Y"
b00000000000000000000010110010011 Z"
1["
b00000000000000000000000000000000 ]"
#55000000
0'
0*
05
0j
0<"
0G"
0["
#60000000
b00000000000000000000000000001000 &
1'
1*
b00000000000000000000000000001000 -
b00000000000000000000000001001000 /
b00000000100000000000001010010011 0
b00000000000000000000000000001000 4
15
b00000000000000000000000001001000 7
b00000000100000000000001010010011 8
b00000000000000000000000000001000 :
0@
0J
0X
1j
0r
b00000000000000000000000001001000 t
b00000000100000000000001010010011 u
b00000000000000000000000000001000 v
b00000000000000000000000001001100 z
b00000000000000000000000001001100 {
b00000000000000000000000001010000 |
b00000000000000000000000001010000 }
b00000000000000000000000000001000 !"
b00000000000000000000000000001000 #"
b00000000000000000000000000001000 $"
b00000000000000000000000001001000 %"
b00000000000000000000000000001000 '"
b00000000000000000000000000001000 )"
b00000000000000000000000000001000 +"
b00000000000000000000000000001000 -"
b00000000000000000000000000001000 /"
00"
b00000000000000000000000000001000 2"
b00000000000000000000000000001000 3"
b00000000000000000000000000001000 5"
b00000000000000000000000000001000 6"
b00000000000000000000000001001100 8"
b00000000000000000000000001010000 9"
b00000000000000000000000000001000 ;"
1<"
b01000 ?"
b00101 @"
b00000000000000000000000000001000 A"
b0000000010000000000000101 D"
b00000000000000000000000000001000 F"
1G"
b00000000000000000000000001001100 I"
b00000000000000000000000001001000 J"
b00000000000000000000000001001000 K"
b00000000000000000000000001001100 M"
b00000000000000000000000001001000 N"
b00000000000000000000000000001000 O"
b00000000000000000000000001010000 P"
b00000000000000000000000001010000 Q"
b00000000000000000000000000001000 R"
b00000000000000000000000001010000 T"
b00000000000000000000000001001100 U"
b00000000000000000000000001010000 V"
b00000000000000000000000001001100 X"
b00000000000000000000000001001000 Y"
b00000000100000000000001010010011 Z"
1["
b00000000000000000000000000001000 ]"
#65000000
0'
0*
05
0j
0<"
0G"
0["
#70000000
b00000000000000000000000000000000 &
1'
1*
b00000000000000000000000000000000 -
b00000000000000000000000001001100 /
b00000001100001010001010100010011 0
b00000000000000000000000000000000 4
15
b00000000000000000000000001001100 7
b00000001100001010001010100010011 8
b00000000000000000000000000000000 :
1@
b100 D
b001 H
1J
b100 S
1X
b001 e
b100 h
1j
b100 q
1r
b00000000000000000000000001001100 t
b00000001100001010001010100010011 u
b00000000000000000000000000000000 v
b00000000000000000000000001010000 z
b00000000000000000000000001010000 {
b00000000000000000000000001100100 |
b00000000000000000000000001100100 }
b00000000000000000000000000011000 !"
b00000000000000000000000000011000 #"
b00000000000000000000000000000000 $"
b00000000000000000000000001001100 %"
b00000000000000000000000000000000 '"
b00000000000000000000000000011000 )"
b00000000000000000000000000011000 +"
b00000000000000000000000000011000 -"
b100 ."
b00000000000000000000000000000000 /"
10"
b00000000000000000000000000011000 2"
b00000000000000000000000000011000 3"
b00000000000000000000000000000000 5"
b00000000000000000000000000000000 6"
b00000000000000000000000001010000 8"
b00000000000000000000000001100100 9"
b00000000000000000000000000000000 ;"
1<"
b01010 >"
b11000 ?"
b01010 @"
b00000000000000000000000000000000 A"
b0000000110000101000101010 D"
b00000000000000000000000000011000 F"
1G"
b00000000000000000000000001010000 I"
b00000000000000000000000001001100 J"
b00000000000000000000000001001100 K"
b00000000000000000000000001010000 M"
b00000000000000000000000001001100 N"
b00000000000000000000000000011000 O"
b00000000000000000000000001100100 P"
b00000000000000000000000001100100 Q"
b00000000000000000000000000000000 R"
b00000000000000000000000001100100 T"
b00000000000000000000000001010000 U"
b00000000000000000000000001100100 V"
b00000000000000000000000001010000 X"
b00000000000000000000000001001100 Y"
b00000001100001010001010100010011 Z"
1["
b00000000000000000000000000000000 ]"
#75000000
0'
0*
05
0j
0<"
0G"
0["
#80000000
b00000000000000000000000000000000 &
1'
1*
b00000000000000000000000000000000 -
b00000000000000000000000001010000 /
b00000000000001010100010001100011 0
b00000000000000000000000000000000 4
15
b00000000000000000000000001010000 7
b00000000000001010100010001100011 8
09
b00000000000000000000000000000000 :
0=
0>
1@
0A
0B
b001 D
b010 E
b1100011 G
b100 H
1J
0K
b00 L
0M
0N
0O
0P
b010 R
b001 S
-T
b01 U
1V
0X
b1100011 Y
b00 Z
0[
1\
0]
0^
0_
b010 `
b01 a
-b
b001000001010- c
1d
b100 e
b01 g
b001 h
1j
0m
0n
0o
b010 p
b001 q
1r
0s
b00000000000000000000000001010000 t
b00000000000001010100010001100011 u
b00000000000000000000000000000000 v
b00000000000000000000000001010100 z
b00000000000000000000000001010100 {
b00000000000000000000000001011000 |
b00000000000000000000000001011000 }
b00000000000000000000000000001000 !"
b00000000000000000000000000000000 #"
b00000000000000000000000000000000 $"
b00000000000000000000000001010000 %"
b00000000000000000000000000000000 '"
b00000000000000000000000000001000 )"
0*"
b00000000000000000000000000000000 +"
b00000000000000000000000000000000 -"
b001 ."
b00000000000000000000000000000000 /"
10"
01"
b11111111111111111111111111111111 2"
b00000000000000000000000000000000 3"
b00000000000000000000000000000001 4"
b00000000000000000000000000000000 5"
b00000000000000000000000000000000 6"
b00000000000000000000000001010100 8"
b00000000000000000000000001011000 9"
b00000000000000000000000000000000 ;"
1<"
0="
b00000 ?"
b01000 @"
b00000000000000000000000000000000 A"
b0000000000000101010001000 D"
b010 E"
b00000000000000000000000000001000 F"
1G"
b00000000000000000000000001010100 I"
b00000000000000000000000001010000 J"
b00000000000000000000000001010000 K"
b00000000000000000000000001010100 M"
b00000000000000000000000001010000 N"
b00000000000000000000000000001000 O"
b00000000000000000000000001011000 P"
b00000000000000000000000001011000 Q"
b00000000000000000000000000000000 R"
b00000000000000000000000001011000 T"
b00000000000000000000000001010100 U"
b00000000000000000000000001011000 V"
0W"
b00000000000000000000000001010100 X"
b00000000000000000000000001010000 Y"
b00000000000001010100010001100011 Z"
1["
b00000000000000000000000000000000 ]"
#85000000
0'
0*
05
0j
0<"
0G"
0["
#90000000
1'
1*
b00000000000000000000000001010100 /
b00000000100000000000000001101111 0
15
b00000000000000000000000001010100 7
b00000000100000000000000001101111 8
09
1>
1?
1B
b10 C
b000 D
b011 E
b1101111 G
b000 H
b10 L
0M
1N
0O
1P
1Q
b011 R
b000 S
-T
b00 U
0V
1W
1X
b1101111 Y
b10 Z
0[
0\
0]
1^
1_
b011 `
b00 a
-b
b101100100001- c
b000 e
b00 g
b000 h
1j
b10 l
1m
1o
b011 p
b000 q
b00000000000000000000000001010100 t
b00000000100000000000000001101111 u
b00000000000000000000000001011100 z
b00000000000000000000000001011000 {
b00000000000000000000000001011100 |
b00000000000000000000000001011100 }
b00000000000000000000000000001000 !"
b00000000000000000000000001011000 $"
b00000000000000000000000001010100 %"
b00000000000000000000000000001000 )"
b000 ."
b00000000000000000000000000000000 2"
b00000000000000000000000000000000 4"
b00000000000000000000000001011000 8"
b00000000000000000000000001011100 9"
b10 :"
b00000000000000000000000001011000 ;"
1<"
1="
b00000 >"
b01000 ?"
b00000 @"
b00000000000000000000000001011000 A"
b0000000010000000000000000 D"
b011 E"
b00000000000000000000000000001000 F"
1G"
b00000000000000000000000001011100 I"
b00000000000000000000000001010100 J"
b00000000000000000000000001010100 K"
b00000000000000000000000001011000 M"
b00000000000000000000000001010100 N"
b00000000000000000000000000001000 O"
b00000000000000000000000001011100 P"
b00000000000000000000000001011100 Q"
b00000000000000000000000001011100 T"
b00000000000000000000000001011000 U"
b00000000000000000000000001011100 V"
1W"
b00000000000000000000000001011100 X"
b00000000000000000000000001010100 Y"
b00000000100000000000000001101111 Z"
1["
#95000000
0'
0*
05
0j
0<"
0G"
0["
#100000000
b00000000000000000000000000001100 %
1'
1*
b00000000000000000000000000001100 ,
b00000000000000000000000001011100 /
b00000000000101010001010100010011 0
b00000000000000000000000000001100 3
15
b00000000000000000000000001011100 7
b00000000000101010001010100010011 8
09
b00000000000000000000000000001100 ;
1=
0?
0B
b00 C
b100 D
b000 E
b0010011 G
b001 H
b00 L
0M
0N
1O
1P
0Q
b000 R
b100 S
-T
b10 U
0W
b0010011 Y
b00 Z
0[
0\
1]
1^
0_
b000 `
b10 a
-b
b100010000100- c
0d
b001 e
b10 g
b100 h
1j
b00 l
0m
1n
b000 p
b100 q
b00000000000000000000000001011100 t
b00000000000101010001010100010011 u
b00000000000000000000000000001100 w
b00000000000000000000000001100000 z
b00000000000000000000000001100000 {
b00000000000000000000000001011101 |
b00000000000000000000000001011101 }
b00000000000000000000000000000001 !"
b00000000000000000000000000000001 #"
b00000000000000000000000000000000 $"
b00000000000000000000000001011100 %"
b00000000000000000000000000001100 &"
b00000000000000000000000000001100 ("
b00000000000000000000000000000001 )"
1*"
b00000000000000000000000000000001 +"
b00000000000000000000000000000001 -"
b100 ."
b00000000000000000000000000000001 2"
b00000000000000000000000000000001 3"
b00000000000000000000000001100000 8"
b00000000000000000000000001011101 9"
b00 :"
b00000000000000000000000000000000 ;"
1<"
b01010 >"
b00001 ?"
b01010 @"
b00000000000000000000000000000000 A"
b00000000000000000000000000001100 C"
b0000000000010101000101010 D"
b000 E"
b00000000000000000000000000000001 F"
1G"
b00000000000000000000000001100000 I"
b00000000000000000000000001011100 J"
b00000000000000000000000001011100 K"
b00000000000000000000000001100000 M"
b00000000000000000000000001011100 N"
b00000000000000000000000000000001 O"
b00000000000000000000000001011101 P"
b00000000000000000000000001011101 Q"
b00000000000000000000000001011101 T"
b00000000000000000000000001100000 U"
b00000000000000000000000001011101 V"
0W"
b00000000000000000000000001100000 X"
b00000000000000000000000001011100 Y"
b00000000000101010001010100010011 Z"
1["
b00000000000000000000000000001100 ^"
#105000000
0'
0*
05
0j
0<"
0G"
0["
#110000000
b00000000000000000000000000000000 %
b00000000000000000000000000000111 &
1'
1*
b00000000000000000000000000000000 ,
b00000000000000000000000000000111 -
b00000000000000000000000001100000 /
b11111111111100101000001010010011 0
b00000000000000000000000000000000 3
b00000000000000000000000000000111 4
15
b00000000000000000000000001100000 7
b11111111111100101000001010010011 8
b00000000000000000000000000000111 :
b00000000000000000000000000000000 ;
0@
b000 D
b000 H
1I
0J
b000 S
0X
b000 e
1f
b000 h
1j
b000 q
0r
b00000000000000000000000001100000 t
b11111111111100101000001010010011 u
b00000000000000000000000000000111 v
b00000000000000000000000000000000 w
b00000000000000000000000001100100 z
b00000000000000000000000001100100 {
b00000000000000000000000001011111 |
b00000000000000000000000001011111 }
b11111111111111111111111111111111 !"
b00000000000000000000000000001000 ""
b11111111111111111111111111111111 #"
b00000000000000000000000000000111 $"
b00000000000000000000000001100000 %"
b00000000000000000000000000000000 &"
b00000000000000000000000000000111 '"
b00000000000000000000000000000000 ("
b11111111111111111111111111111111 )"
b11111111111111111111111111111111 +"
b00000000000000000000000000001000 ,"
b11111111111111111111111111111111 -"
b000 ."
b00000000000000000000000000000111 /"
00"
b11111111111111111111111111111111 2"
b00000000000000000000000000000111 3"
b00000000000000000000000000000111 5"
b00000000000000000000000000000111 6"
b00000000000000000000000001100100 8"
b00000000000000000000000001011111 9"
b00000000000000000000000000000111 ;"
1<"
b00101 >"
b11111 ?"
b00101 @"
b00000000000000000000000000000111 A"
b00000000000000000000000000001000 B"
b00000000000000000000000000000000 C"
b1111111111110010100000101 D"
b11111111111111111111111111111111 F"
1G"
b00000000000000000000000001100100 I"
b00000000000000000000000001100000 J"
b00000000000000000000000001100000 K"
b00000000000000000000000001100100 M"
b00000000000000000000000001100000 N"
b11111111111111111111111111111111 O"
b00000000000000000000000001011111 P"
b00000000000000000000000001011111 Q"
b00000000000000000000000000000111 R"
b00000000000000000000000001011111 T"
b00000000000000000000000001100100 U"
b00000000000000000000000001011111 V"
b00000000000000000000000001100100 X"
b00000000000000000000000001100000 Y"
b11111111111100101000001010010011 Z"
1["
b00000000000000000000000000000111 ]"
b00000000000000000000000000000000 ^"
#115000000
0'
0*
05
0j
0<"
0G"
0["
#120000000
b00000000000000000000000000000111 &
1'
1*
b00000000000000000000000000000111 -
b00000000000000000000000001100100 /
b00000000000000101000010001100011 0
b00000000000000000000000000000111 4
15
b00000000000000000000000001100100 7
b00000000000000101000010001100011 8
09
b00000000000000000000000000000111 :
0=
0>
b001 D
b010 E
b1100011 G
0I
b00 L
0M
0O
0P
b010 R
b001 S
-T
b01 U
1V
b1100011 Y
b00 Z
0[
1\
0]
0^
0_
b010 `
b01 a
-b
b001000001010- c
1d
0f
b01 g
b001 h
1j
0n
0o
b010 p
b001 q
b00000000000000000000000001100100 t
b00000000000000101000010001100011 u
b00000000000000000000000000000111 v
b00000000000000000000000001101000 z
b00000000000000000000000001101000 {
b00000000000000000000000001101100 |
b00000000000000000000000001101100 }
b00000000000000000000000000001000 !"
b00000000000000000000000000000111 ""
b00000000000000000000000000000000 #"
b00000000000000000000000000000111 $"
b00000000000000000000000001100100 %"
b00000000000000000000000000000111 '"
b00000000000000000000000000001000 )"
0*"
b00000000000000000000000000000000 +"
b00000000000000000000000000000111 ,"
b00000000000000000000000000000000 -"
b001 ."
b00000000000000000000000000000111 /"
b11111111111111111111111111111111 2"
b00000000000000000000000000000111 3"
b00000000000000000000000000000001 4"
b00000000000000000000000000000111 5"
b00000000000000000000000000000111 6"
b00000000000000000000000001101000 8"
b00000000000000000000000001101100 9"
b00000000000000000000000000000111 ;"
1<"
0="
b00000 ?"
b01000 @"
b00000000000000000000000000000111 A"
b00000000000000000000000000000111 B"
b0000000000000010100001000 D"
b010 E"
b00000000000000000000000000001000 F"
1G"
b00000000000000000000000001101000 I"
b00000000000000000000000001100100 J"
b00000000000000000000000001100100 K"
b00000000000000000000000001101000 M"
b00000000000000000000000001100100 N"
b00000000000000000000000000001000 O"
b00000000000000000000000001101100 P"
b00000000000000000000000001101100 Q"
b00000000000000000000000000000111 R"
b00000000000000000000000001101100 T"
b00000000000000000000000001101000 U"
b00000000000000000000000001101100 V"
b00000000000000000000000001101000 X"
b00000000000000000000000001100100 Y"
b00000000000000101000010001100011 Z"
1["
b00000000000000000000000000000111 ]"
#125000000
0'
0*
05
0j
0<"
0G"
0["
