2023s/arch/project/06.1-riscv-sim/trace.vcd
$date
  Wed May  3 16:07:20 2023
$end
$version
  GHDL v0
$end
$timescale
  1 fs
$end
$scope module standard $end
$upscope $end
$scope module textio $end
$upscope $end
$scope module std_logic_1164 $end
$upscope $end
$scope module numeric_std $end
$upscope $end
$scope module checkresultpkg $end
$var reg 32 ! g_dmem_128[31:0] $end
$var reg 32 " g_dmem_129[31:0] $end
$var reg 32 # g_dmem_130[31:0] $end
$var reg 32 $ g_dmem_131[31:0] $end
$var reg 32 % g_reg_x10[31:0] $end
$upscope $end
$scope module env $end
$upscope $end
$scope module std_logic_arith $end
$upscope $end
$scope module std_logic_textio $end
$upscope $end
$scope module testbench $end
$var reg 32 & writedata[31:0] $end
$var reg 32 ' dataadr[31:0] $end
$var reg 1 ( clk $end
$var reg 1 ) reset $end
$var reg 1 * memwrite $end
$scope module dut $end
$var reg 1 + clk $end
$var reg 1 , reset $end
$var reg 32 - writedata[31:0] $end
$var reg 32 . dataadr[31:0] $end
$var reg 1 / memwrite $end
$var reg 32 0 pc[31:0] $end
$var reg 32 1 instr[31:0] $end
$var reg 32 2 readdata[31:0] $end
$var reg 1 3 memwrite_s $end
$var reg 32 4 writedata_s[31:0] $end
$var reg 32 5 dataadr_s[31:0] $end
$scope module rvsingle $end
$var reg 1 6 clk $end
$var reg 1 7 reset $end
$var reg 32 8 pc[31:0] $end
$var reg 32 9 instr[31:0] $end
$var reg 1 : memwrite $end
$var reg 32 ; aluresult[31:0] $end
$var reg 32 < writedata[31:0] $end
$var reg 32 = readdata[31:0] $end
$var reg 1 > alusrc $end
$var reg 1 ? regwrite $end
$var reg 1 @ jump $end
$var reg 1 A zero $end
$var reg 1 B pcsrc $end
$var reg 2 C resultsrc[1:0] $end
$var reg 2 D immsrc[1:0] $end
$var reg 3 E alucontrol[2:0] $end
$scope module c $end
$var reg 7 F op[6:0] $end
$var reg 3 G funct3[2:0] $end
$var reg 1 H funct7b5 $end
$var reg 1 I zero $end
$var reg 2 J resultsrc[1:0] $end
$var reg 1 K memwrite $end
$var reg 1 L pcsrc $end
$var reg 1 M alusrc $end
$var reg 1 N regwrite $end
$var reg 1 O jump $end
$var reg 2 P immsrc[1:0] $end
$var reg 3 Q alucontrol[2:0] $end
$var reg 2 R aluop[1:0] $end
$var reg 1 S branch $end
$var reg 1 T jump_s $end
$scope module md $end
$var reg 7 U op[6:0] $end
$var reg 2 V resultsrc[1:0] $end
$var reg 1 W memwrite $end
$var reg 1 X branch $end
$var reg 1 Y alusrc $end
$var reg 1 Z regwrite $end
$var reg 1 [ jump $end
$var reg 2 \ immsrc[1:0] $end
$var reg 2 ] aluop[1:0] $end
$var reg 11 ^ controls[10:0] $end
$upscope $end
$scope module ad $end
$var reg 1 _ opb5 $end
$var reg 3 ` funct3[2:0] $end
$var reg 1 a funct7b5 $end
$var reg 2 b aluop[1:0] $end
$var reg 3 c alucontrol[2:0] $end
$var reg 1 d rtypesub $end
$upscope $end
$upscope $end
$scope module dp $end
$var reg 1 e clk $end
$var reg 1 f reset $end
$var reg 2 g resultsrc[1:0] $end
$var reg 1 h pcsrc $end
$var reg 1 i alusrc $end
$var reg 1 j regwrite $end
$var reg 2 k immsrc[1:0] $end
$var reg 3 l alucontrol[2:0] $end
$var reg 1 m zero $end
$var reg 32 n pc[31:0] $end
$var reg 32 o instr[31:0] $end
$var reg 32 p aluresult[31:0] $end
$var reg 32 q writedata[31:0] $end
$var reg 32 r readdata[31:0] $end
$var reg 32 s pcnext[31:0] $end
$var reg 32 t pcplus4[31:0] $end
$var reg 32 u pctarget[31:0] $end
$var reg 32 v immext[31:0] $end
$var reg 32 w srca[31:0] $end
$var reg 32 x srcb[31:0] $end
$var reg 32 y result[31:0] $end
$var reg 32 z pc_s[31:0] $end
$var reg 32 { writedata_s[31:0] $end
$var reg 32 | aluresult_s[31:0] $end
$scope module pcreg $end
$var reg 1 } clk $end
$var reg 1 !" reset $end
$var reg 32 "" resetvalue[31:0] $end
$var reg 32 #" d[31:0] $end
$var reg 32 $" q[31:0] $end
$upscope $end
$scope module pcadd4 $end
$var reg 32 %" a[31:0] $end
$var reg 32 &" b[31:0] $end
$var reg 32 '" y[31:0] $end
$upscope $end
$scope module pcaddbranch $end
$var reg 32 (" a[31:0] $end
$var reg 32 )" b[31:0] $end
$var reg 32 *" y[31:0] $end
$upscope $end
$scope module pcmux $end
$var reg 32 +" d0[31:0] $end
$var reg 32 ," d1[31:0] $end
$var reg 1 -" s $end
$var reg 32 ." y[31:0] $end
$upscope $end
$scope module rf $end
$var reg 1 /" clk $end
$var reg 1 0" we3 $end
$var reg 5 1" a1[4:0] $end
$var reg 5 2" a2[4:0] $end
$var reg 5 3" a3[4:0] $end
$var reg 32 4" wd3[31:0] $end
$var reg 32 5" rd1[31:0] $end
$var reg 32 6" rd2[31:0] $end
$comment mem is not handled $end
$upscope $end
$scope module ext $end
$var reg 25 7" instr[31:7] $end
$var reg 2 8" immsrc[1:0] $end
$var reg 32 9" immext[31:0] $end
$upscope $end
$scope module srcbmux $end
$var reg 32 :" d0[31:0] $end
$var reg 32 ;" d1[31:0] $end
$var reg 1 <" s $end
$var reg 32 =" y[31:0] $end
$upscope $end
$scope module mainalu $end
$var reg 32 >" a[31:0] $end
$var reg 32 ?" b[31:0] $end
$var reg 3 @" alucontrol[2:0] $end
$var reg 32 A" aluresult[31:0] $end
$var reg 1 B" zero $end
$var reg 32 C" condinvb[31:0] $end
$var reg 32 D" sum[31:0] $end
$var reg 32 E" alucontrol_0_tmp[31:0] $end
$var reg 32 F" aluresult_s[31:0] $end
$upscope $end
$scope module resultmux $end
$var reg 32 G" d0[31:0] $end
$var reg 32 H" d1[31:0] $end
$var reg 32 I" d2[31:0] $end
$var reg 2 J" s[1:0] $end
$var reg 32 K" y[31:0] $end
$upscope $end
$upscope $end
$upscope $end
$scope module imem1 $end
$var reg 32 L" a[31:0] $end
$var reg 32 M" rd[31:0] $end
$comment i_mem is not handled $end
$upscope $end
$scope module dmem1 $end
$var reg 1 N" clk $end
$var reg 1 O" we $end
$var reg 32 P" a[31:0] $end
$var reg 32 Q" wd[31:0] $end
$var reg 32 R" rd[31:0] $end
$comment d_mem is not handled $end
$upscope $end
$upscope $end
$upscope $end
$enddefinitions $end
#0
b00000000000000000000000000000000 !
b00000000000000000000000000000000 "
b00000000000000000000000000000000 #
b00000000000000000000000000000000 $
b00000000000000000000000000000000 %
b00000000000000000000000000000000 &
b00000000000000000010000000000000 '
1(
1)
0*
1+
1,
b00000000000000000000000000000000 -
b00000000000000000010000000000000 .
0/
b00000000000000000001000000000000 0
b11111111110001001010001100000011 1
b00000000000000000000000000001010 2
03
b00000000000000000000000000000000 4
b00000000000000000010000000000000 5
16
17
b00000000000000000001000000000000 8
b11111111110001001010001100000011 9
0:
b00000000000000000010000000000000 ;
b00000000000000000000000000000000 <
b00000000000000000000000000001010 =
1>
1?
0@
0A
0B
b01 C
b00 D
b000 E
b0000011 F
b010 G
1H
0I
b01 J
0K
0L
1M
1N
0O
b00 P
b000 Q
b00 R
0S
0T
b0000011 U
b01 V
0W
0X
1Y
1Z
0[
b00 \
b00 ]
b10010010000 ^
0_
b010 `
1a
b00 b
b000 c
0d
1e
1f
b01 g
0h
1i
1j
b00 k
b000 l
0m
b00000000000000000001000000000000 n
b11111111110001001010001100000011 o
b00000000000000000010000000000000 p
b00000000000000000000000000000000 q
b00000000000000000000000000001010 r
b00000000000000000001000000000100 s
b00000000000000000001000000000100 t
b00000000000000000000111111111100 u
b11111111111111111111111111111100 v
b00000000000000000010000000000100 w
b11111111111111111111111111111100 x
b00000000000000000000000000001010 y
b00000000000000000001000000000000 z
b00000000000000000000000000000000 {
b00000000000000000010000000000000 |
1}
1!"
b00000000000000000001000000000000 ""
b00000000000000000001000000000100 #"
b00000000000000000001000000000000 $"
b00000000000000000001000000000000 %"
b00000000000000000000000000000100 &"
b00000000000000000001000000000100 '"
b00000000000000000001000000000000 ("
b11111111111111111111111111111100 )"
b00000000000000000000111111111100 *"
b00000000000000000001000000000100 +"
b00000000000000000000111111111100 ,"
0-"
b00000000000000000001000000000100 ."
1/"
10"
b01001 1"
b11100 2"
b00110 3"
b00000000000000000000000000001010 4"
b00000000000000000010000000000100 5"
b00000000000000000000000000000000 6"
b1111111111000100101000110 7"
b00 8"
b11111111111111111111111111111100 9"
b00000000000000000000000000000000 :"
b11111111111111111111111111111100 ;"
1<"
b11111111111111111111111111111100 ="
b00000000000000000010000000000100 >"
b11111111111111111111111111111100 ?"
b000 @"
b00000000000000000010000000000000 A"
0B"
b11111111111111111111111111111100 C"
b00000000000000000010000000000000 D"
b00000000000000000000000000000000 E"
b00000000000000000010000000000000 F"
b00000000000000000010000000000000 G"
b00000000000000000000000000001010 H"
b00000000000000000001000000000100 I"
b01 J"
b00000000000000000000000000001010 K"
b00000000000000000001000000000000 L"
b11111111110001001010001100000011 M"
1N"
0O"
b00000000000000000010000000000000 P"
b00000000000000000000000000000000 Q"
b00000000000000000000000000001010 R"
#5000000
0(
0+
06
0e
0}
0/"
0N"
#10000000
1(
1+
16
1e
1}
1/"
1N"
#15000000
0(
0+
06
0e
0}
0/"
0N"
#20000000
1(
1+
16
1e
1}
1/"
1N"
#22000000
0)
0,
07
0f
0!"
#25000000
0(
0+
06
0e
0}
0/"
0N"
#30000000
b00000000000000000000000000001010 &
b00000000000000000010000000001100 '
1(
1*
1+
b00000000000000000000000000001010 -
b00000000000000000010000000001100 .
1/
b00000000000000000001000000000100 0
b00000000011001001010010000100011 1
b00000000000000000000000000000000 2
13
b00000000000000000000000000001010 4
b00000000000000000010000000001100 5
16
b00000000000000000001000000000100 8
b00000000011001001010010000100011 9
1:
b00000000000000000010000000001100 ;
b00000000000000000000000000001010 <
b00000000000000000000000000000000 =
0?
b00 C
b01 D
b0100011 F
0H
b00 J
1K
1M
0N
b01 P
b0100011 U
b00 V
1W
0X
1Y
0Z
0[
b01 \
b00 ]
b00111000000 ^
1_
0a
1e
b00 g
0j
b01 k
b00000000000000000001000000000100 n
b00000000011001001010010000100011 o
b00000000000000000010000000001100 p
b00000000000000000000000000001010 q
b00000000000000000000000000000000 r
b00000000000000000001000000001000 s
b00000000000000000001000000001000 t
b00000000000000000001000000001100 u
b00000000000000000000000000001000 v
b00000000000000000000000000001000 x
b00000000000000000010000000001100 y
b00000000000000000001000000000100 z
b00000000000000000000000000001010 {
b00000000000000000010000000001100 |
1}
b00000000000000000001000000001000 #"
b00000000000000000001000000000100 $"
b00000000000000000001000000000100 %"
b00000000000000000001000000001000 '"
b00000000000000000001000000000100 ("
b00000000000000000000000000001000 )"
b00000000000000000001000000001100 *"
b00000000000000000001000000001000 +"
b00000000000000000001000000001100 ,"
b00000000000000000001000000001000 ."
1/"
00"
b00110 2"
b01000 3"
b00000000000000000010000000001100 4"
b00000000000000000000000000001010 6"
b0000000001100100101001000 7"
b01 8"
b00000000000000000000000000001000 9"
b00000000000000000000000000001010 :"
b00000000000000000000000000001000 ;"
b00000000000000000000000000001000 ="
b00000000000000000000000000001000 ?"
b00000000000000000010000000001100 A"
b00000000000000000000000000001000 C"
b00000000000000000010000000001100 D"
b00000000000000000010000000001100 F"
b00000000000000000010000000001100 G"
b00000000000000000000000000000000 H"
b00000000000000000001000000001000 I"
b00 J"
b00000000000000000010000000001100 K"
b00000000000000000001000000000100 L"
b00000000011001001010010000100011 M"
1N"
1O"
b00000000000000000010000000001100 P"
b00000000000000000000000000001010 Q"
b00000000000000000000000000000000 R"
#35000000
0(
0+
06
0e
0}
0/"
0N"
#40000000
b00000000000000000000000000001110 '
1(
0*
1+
b00000000000000000000000000001110 .
0/
b00000000000000000001000000001000 0
b00000000011000101110001000110011 1
03
b00000000000000000000000000001110 5
16
b00000000000000000001000000001000 8
b00000000011000101110001000110011 9
0:
b00000000000000000000000000001110 ;
0>
1?
b-- D
b011 E
b0110011 F
b110 G
b00 J
0K
0M
1N
b-- P
b011 Q
b10 R
b0110011 U
b00 V
0W
0X
0Y
1Z
0[
b-- \
b10 ]
b1--00000100 ^
b110 `
b10 b
b011 c
1e
0i
1j
b-- k
b011 l
b00000000000000000001000000001000 n
b00000000011000101110001000110011 o
b00000000000000000000000000001110 p
b00000000000000000001000000001100 s
b00000000000000000001000000001100 t
bXXXXXXXXXXXXXXXXXXXXXXXXXXXXXXXX u
b-------------------------------- v
b00000000000000000000000000000110 w
b00000000000000000000000000001010 x
b00000000000000000000000000001110 y
b00000000000000000001000000001000 z
b00000000000000000000000000001110 |
1}
b00000000000000000001000000001100 #"
b00000000000000000001000000001000 $"
b00000000000000000001000000001000 %"
b00000000000000000001000000001100 '"
b00000000000000000001000000001000 ("
b-------------------------------- )"
bXXXXXXXXXXXXXXXXXXXXXXXXXXXXXXXX *"
b00000000000000000001000000001100 +"
bXXXXXXXXXXXXXXXXXXXXXXXXXXXXXXXX ,"
b00000000000000000001000000001100 ."
1/"
10"
b00101 1"
b00100 3"
b00000000000000000000000000001110 4"
b00000000000000000000000000000110 5"
b0000000001100010111000100 7"
b-- 8"
b-------------------------------- 9"
b-------------------------------- ;"
0<"
b00000000000000000000000000001010 ="
b00000000000000000000000000000110 >"
b00000000000000000000000000001010 ?"
b011 @"
b00000000000000000000000000001110 A"
b11111111111111111111111111110101 C"
b11111111111111111111111111111100 D"
b00000000000000000000000000000001 E"
b00000000000000000000000000001110 F"
b00000000000000000000000000001110 G"
b00000000000000000001000000001100 I"
b00000000000000000000000000001110 K"
b00000000000000000001000000001000 L"
b00000000011000101110001000110011 M"
1N"
0O"
b00000000000000000000000000001110 P"
#45000000
0(
0+
06
0e
0}
0/"
0N"
#50000000
b00000000000000000000000000001110 &
b00000000000000000000000000000000 '
1(
1+
b00000000000000000000000000001110 -
b00000000000000000000000000000000 .
b00000000000000000001000000001100 0
b11111110010000100000101011100011 1
b00000000000000000000000000001110 4
b00000000000000000000000000000000 5
16
b00000000000000000001000000001100 8
b11111110010000100000101011100011 9
0:
b00000000000000000000000000000000 ;
b00000000000000000000000000001110 <
0?
1A
1B
b10 D
b001 E
b1100011 F
b000 G
1H
1I
b00 J
0K
1L
0M
0N
b10 P
b001 Q
b01 R
1S
b1100011 U
b00 V
0W
1X
0Y
0Z
0[
b10 \
b01 ]
b01000001010 ^
b000 `
1a
b01 b
b001 c
1d
1e
1h
0j
b10 k
b001 l
1m
b00000000000000000001000000001100 n
b11111110010000100000101011100011 o
b00000000000000000000000000000000 p
b00000000000000000000000000001110 q
b00000000000000000001000000000000 s
b00000000000000000001000000010000 t
b00000000000000000001000000000000 u
b11111111111111111111111111110100 v
b00000000000000000000000000001110 w
b00000000000000000000000000001110 x
b00000000000000000000000000000000 y
b00000000000000000001000000001100 z
b00000000000000000000000000001110 {
b00000000000000000000000000000000 |
1}
b00000000000000000001000000000000 #"
b00000000000000000001000000001100 $"
b00000000000000000001000000001100 %"
b00000000000000000001000000010000 '"
b00000000000000000001000000001100 ("
b11111111111111111111111111110100 )"
b00000000000000000001000000000000 *"
b00000000000000000001000000010000 +"
b00000000000000000001000000000000 ,"
1-"
b00000000000000000001000000000000 ."
1/"
00"
b00100 1"
b00100 2"
b10101 3"
b00000000000000000000000000000000 4"
b00000000000000000000000000001110 5"
b00000000000000000000000000001110 6"
b1111111001000010000010101 7"
b10 8"
b11111111111111111111111111110100 9"
b00000000000000000000000000001110 :"
b11111111111111111111111111110100 ;"
b00000000000000000000000000001110 ="
b00000000000000000000000000001110 >"
b00000000000000000000000000001110 ?"
b001 @"
b00000000000000000000000000000000 A"
1B"
b11111111111111111111111111110001 C"
b00000000000000000000000000000000 D"
b00000000000000000000000000000001 E"
b00000000000000000000000000000000 F"
b00000000000000000000000000000000 G"
b00000000000000000001000000010000 I"
b00000000000000000000000000000000 K"
b00000000000000000001000000001100 L"
b11111110010000100000101011100011 M"
1N"
b00000000000000000000000000000000 P"
b00000000000000000000000000001110 Q"
#55000000
0(
0+
06
0e
0}
0/"
0N"
#60000000
b00000000000000000000000000000000 &
b00000000000000000010000000000000 '
1(
1+
b00000000000000000000000000000000 -
b00000000000000000010000000000000 .
b00000000000000000001000000000000 0
b11111111110001001010001100000011 1
b00000000000000000000000000001010 2
b00000000000000000000000000000000 4
b00000000000000000010000000000000 5
16
b00000000000000000001000000000000 8
b11111111110001001010001100000011 9
0:
b00000000000000000010000000000000 ;
b00000000000000000000000000000000 <
b00000000000000000000000000001010 =
1>
1?
0A
0B
b01 C
b00 D
b000 E
b0000011 F
b010 G
0I
b01 J
0K
0L
1M
1N
b00 P
b000 Q
b00 R
0S
b0000011 U
b01 V
0W
0X
1Y
1Z
0[
b00 \
b00 ]
b10010010000 ^
0_
b010 `
b00 b
b000 c
0d
1e
b01 g
0h
1i
1j
b00 k
b000 l
0m
b00000000000000000001000000000000 n
b11111111110001001010001100000011 o
b00000000000000000010000000000000 p
b00000000000000000000000000000000 q
b00000000000000000000000000001010 r
b00000000000000000001000000000100 s
b00000000000000000001000000000100 t
b00000000000000000000111111111100 u
b11111111111111111111111111111100 v
b00000000000000000010000000000100 w
b11111111111111111111111111111100 x
b00000000000000000000000000001010 y
b00000000000000000001000000000000 z
b00000000000000000000000000000000 {
b00000000000000000010000000000000 |
1}
b00000000000000000001000000000100 #"
b00000000000000000001000000000000 $"
b00000000000000000001000000000000 %"
b00000000000000000001000000000100 '"
b00000000000000000001000000000000 ("
b11111111111111111111111111111100 )"
b00000000000000000000111111111100 *"
b00000000000000000001000000000100 +"
b00000000000000000000111111111100 ,"
0-"
b00000000000000000001000000000100 ."
1/"
10"
b01001 1"
b11100 2"
b00110 3"
b00000000000000000000000000001010 4"
b00000000000000000010000000000100 5"
b00000000000000000000000000000000 6"
b1111111111000100101000110 7"
b00 8"
b11111111111111111111111111111100 9"
b00000000000000000000000000000000 :"
b11111111111111111111111111111100 ;"
1<"
b11111111111111111111111111111100 ="
b00000000000000000010000000000100 >"
b11111111111111111111111111111100 ?"
b000 @"
b00000000000000000010000000000000 A"
0B"
b11111111111111111111111111111100 C"
b00000000000000000010000000000000 D"
b00000000000000000000000000000000 E"
b00000000000000000010000000000000 F"
b00000000000000000010000000000000 G"
b00000000000000000000000000001010 H"
b00000000000000000001000000000100 I"
b01 J"
b00000000000000000000000000001010 K"
b00000000000000000001000000000000 L"
b11111111110001001010001100000011 M"
1N"
b00000000000000000010000000000000 P"
b00000000000000000000000000000000 Q"
b00000000000000000000000000001010 R"
#65000000
0(
0+
06
0e
0}
0/"
0N"
#70000000
b00000000000000000000000000001010 &
b00000000000000000010000000001100 '
1(
1*
1+
b00000000000000000000000000001010 -
b00000000000000000010000000001100 .
1/
b00000000000000000001000000000100 0
b00000000011001001010010000100011 1
b00000000000000000000000000001010 2
13
b00000000000000000000000000001010 4
b00000000000000000010000000001100 5
16
b00000000000000000001000000000100 8
b00000000011001001010010000100011 9
1:
b00000000000000000010000000001100 ;
b00000000000000000000000000001010 <
b00000000000000000000000000001010 =
0?
b00 C
b01 D
b0100011 F
0H
b00 J
1K
1M
0N
b01 P
b0100011 U
b00 V
1W
0X
1Y
0Z
0[
b01 \
b00 ]
b00111000000 ^
1_
0a
1e
b00 g
0j
b01 k
b00000000000000000001000000000100 n
b00000000011001001010010000100011 o
b00000000000000000010000000001100 p
b00000000000000000000000000001010 q
b00000000000000000000000000001010 r
b00000000000000000001000000001000 s
b00000000000000000001000000001000 t
b00000000000000000001000000001100 u
b00000000000000000000000000001000 v
b00000000000000000000000000001000 x
b00000000000000000010000000001100 y
b00000000000000000001000000000100 z
b00000000000000000000000000001010 {
b00000000000000000010000000001100 |
1}
b00000000000000000001000000001000 #"
b00000000000000000001000000000100 $"
b00000000000000000001000000000100 %"
b00000000000000000001000000001000 '"
b00000000000000000001000000000100 ("
b00000000000000000000000000001000 )"
b00000000000000000001000000001100 *"
b00000000000000000001000000001000 +"
b00000000000000000001000000001100 ,"
b00000000000000000001000000001000 ."
1/"
00"
b00110 2"
b01000 3"
b00000000000000000010000000001100 4"
b00000000000000000000000000001010 6"
b0000000001100100101001000 7"
b01 8"
b00000000000000000000000000001000 9"
b00000000000000000000000000001010 :"
b00000000000000000000000000001000 ;"
b00000000000000000000000000001000 ="
b00000000000000000000000000001000 ?"
b00000000000000000010000000001100 A"
b00000000000000000000000000001000 C"
b00000000000000000010000000001100 D"
b00000000000000000010000000001100 F"
b00000000000000000010000000001100 G"
b00000000000000000000000000001010 H"
b00000000000000000001000000001000 I"
b00 J"
b00000000000000000010000000001100 K"
b00000000000000000001000000000100 L"
b00000000011001001010010000100011 M"
1N"
1O"
b00000000000000000010000000001100 P"
b00000000000000000000000000001010 Q"
b00000000000000000000000000001010 R"
#75000000
0(
0+
06
0e
0}
0/"
0N"
#80000000
b00000000000000000000000000001110 '
1(
0*
1+
b00000000000000000000000000001110 .
0/
b00000000000000000001000000001000 0
b00000000011000101110001000110011 1
b00000000000000000000000000000000 2
03
b00000000000000000000000000001110 5
16
b00000000000000000001000000001000 8
b00000000011000101110001000110011 9
0:
b00000000000000000000000000001110 ;
b00000000000000000000000000000000 =
0>
1?
b-- D
b011 E
b0110011 F
b110 G
b00 J
0K
0M
1N
b-- P
b011 Q
b10 R
b0110011 U
b00 V
0W
0X
0Y
1Z
0[
b-- \
b10 ]
b1--00000100 ^
b110 `
b10 b
b011 c
1e
0i
1j
b-- k
b011 l
b00000000000000000001000000001000 n
b00000000011000101110001000110011 o
b00000000000000000000000000001110 p
b00000000000000000000000000000000 r
b00000000000000000001000000001100 s
b00000000000000000001000000001100 t
bXXXXXXXXXXXXXXXXXXXXXXXXXXXXXXXX u
b-------------------------------- v
b00000000000000000000000000000110 w
b00000000000000000000000000001010 x
b00000000000000000000000000001110 y
b00000000000000000001000000001000 z
b00000000000000000000000000001110 |
1}
b00000000000000000001000000001100 #"
b00000000000000000001000000001000 $"
b00000000000000000001000000001000 %"
b00000000000000000001000000001100 '"
b00000000000000000001000000001000 ("
b-------------------------------- )"
bXXXXXXXXXXXXXXXXXXXXXXXXXXXXXXXX *"
b00000000000000000001000000001100 +"
bXXXXXXXXXXXXXXXXXXXXXXXXXXXXXXXX ,"
b00000000000000000001000000001100 ."
1/"
10"
b00101 1"
b00100 3"
b00000000000000000000000000001110 4"
b00000000000000000000000000000110 5"
b0000000001100010111000100 7"
b-- 8"
b-------------------------------- 9"
b-------------------------------- ;"
0<"
b00000000000000000000000000001010 ="
b00000000000000000000000000000110 >"
b00000000000000000000000000001010 ?"
b011 @"
b00000000000000000000000000001110 A"
b11111111111111111111111111110101 C"
b11111111111111111111111111111100 D"
b00000000000000000000000000000001 E"
b00000000000000000000000000001110 F"
b00000000000000000000000000001110 G"
b00000000000000000000000000000000 H"
b00000000000000000001000000001100 I"
b00000000000000000000000000001110 K"
b00000000000000000001000000001000 L"
b00000000011000101110001000110011 M"
1N"
0O"
b00000000000000000000000000001110 P"
b00000000000000000000000000000000 R"
#85000000
0(
0+
06
0e
0}
0/"
0N"
#90000000
b00000000000000000000000000001110 &
b00000000000000000000000000000000 '
1(
1+
b00000000000000000000000000001110 -
b00000000000000000000000000000000 .
b00000000000000000001000000001100 0
b11111110010000100000101011100011 1
b00000000000000000000000000001110 4
b00000000000000000000000000000000 5
16
b00000000000000000001000000001100 8
b11111110010000100000101011100011 9
0:
b00000000000000000000000000000000 ;
b00000000000000000000000000001110 <
0?
1A
1B
b10 D
b001 E
b1100011 F
b000 G
1H
1I
b00 J
0K
1L
0M
0N
b10 P
b001 Q
b01 R
1S
b1100011 U
b00 V
0W
1X
0Y
0Z
0[
b10 \
b01 ]
b01000001010 ^
b000 `
1a
b01 b
b001 c
1d
1e
1h
0j
b10 k
b001 l
1m
b00000000000000000001000000001100 n
b11111110010000100000101011100011 o
b00000000000000000000000000000000 p
b00000000000000000000000000001110 q
b00000000000000000001000000000000 s
b00000000000000000001000000010000 t
b00000000000000000001000000000000 u
b11111111111111111111111111110100 v
b00000000000000000000000000001110 w
b00000000000000000000000000001110 x
b00000000000000000000000000000000 y
b00000000000000000001000000001100 z
b00000000000000000000000000001110 {
b00000000000000000000000000000000 |
1}
b00000000000000000001000000000000 #"
b00000000000000000001000000001100 $"
b00000000000000000001000000001100 %"
b00000000000000000001000000010000 '"
b00000000000000000001000000001100 ("
b11111111111111111111111111110100 )"
b00000000000000000001000000000000 *"
b00000000000000000001000000010000 +"
b00000000000000000001000000000000 ,"
1-"
b00000000000000000001000000000000 ."
1/"
00"
b00100 1"
b00100 2"
b10101 3"
b00000000000000000000000000000000 4"
b00000000000000000000000000001110 5"
b00000000000000000000000000001110 6"
b1111111001000010000010101 7"
b10 8"
b11111111111111111111111111110100 9"
b00000000000000000000000000001110 :"
b11111111111111111111111111110100 ;"
b00000000000000000000000000001110 ="
b00000000000000000000000000001110 >"
b00000000000000000000000000001110 ?"
b001 @"
b00000000000000000000000000000000 A"
1B"
b11111111111111111111111111110001 C"
b00000000000000000000000000000000 D"
b00000000000000000000000000000001 E"
b00000000000000000000000000000000 F"
b00000000000000000000000000000000 G"
b00000000000000000001000000010000 I"
b00000000000000000000000000000000 K"
b00000000000000000001000000001100 L"
b11111110010000100000101011100011 M"
1N"
b00000000000000000000000000000000 P"
b00000000000000000000000000001110 Q"
#95000000
0(
0+
06
0e
0}
0/"
0N"
#100000000
b00000000000000000000000000000000 &
b00000000000000000010000000000000 '
1(
1+
b00000000000000000000000000000000 -
b00000000000000000010000000000000 .
b00000000000000000001000000000000 0
b11111111110001001010001100000011 1
b00000000000000000000000000001010 2
b00000000000000000000000000000000 4
b00000000000000000010000000000000 5
16
b00000000000000000001000000000000 8
b11111111110001001010001100000011 9
0:
b00000000000000000010000000000000 ;
b00000000000000000000000000000000 <
b00000000000000000000000000001010 =
1>
1?
0A
0B
b01 C
b00 D
b000 E
b0000011 F
b010 G
0I
b01 J
0K
0L
1M
1N
b00 P
b000 Q
b00 R
0S
b0000011 U
b01 V
0W
0X
1Y
1Z
0[
b00 \
b00 ]
b10010010000 ^
0_
b010 `
b00 b
b000 c
0d
1e
b01 g
0h
1i
1j
b00 k
b000 l
0m
b00000000000000000001000000000000 n
b11111111110001001010001100000011 o
b00000000000000000010000000000000 p
b00000000000000000000000000000000 q
b00000000000000000000000000001010 r
b00000000000000000001000000000100 s
b00000000000000000001000000000100 t
b00000000000000000000111111111100 u
b11111111111111111111111111111100 v
b00000000000000000010000000000100 w
b11111111111111111111111111111100 x
b00000000000000000000000000001010 y
b00000000000000000001000000000000 z
b00000000000000000000000000000000 {
b00000000000000000010000000000000 |
1}
b00000000000000000001000000000100 #"
b00000000000000000001000000000000 $"
b00000000000000000001000000000000 %"
b00000000000000000001000000000100 '"
b00000000000000000001000000000000 ("
b11111111111111111111111111111100 )"
b00000000000000000000111111111100 *"
b00000000000000000001000000000100 +"
b00000000000000000000111111111100 ,"
0-"
b00000000000000000001000000000100 ."
1/"
10"
b01001 1"
b11100 2"
b00110 3"
b00000000000000000000000000001010 4"
b00000000000000000010000000000100 5"
b00000000000000000000000000000000 6"
b1111111111000100101000110 7"
b00 8"
b11111111111111111111111111111100 9"
b00000000000000000000000000000000 :"
b11111111111111111111111111111100 ;"
1<"
b11111111111111111111111111111100 ="
b00000000000000000010000000000100 >"
b11111111111111111111111111111100 ?"
b000 @"
b00000000000000000010000000000000 A"
0B"
b11111111111111111111111111111100 C"
b00000000000000000010000000000000 D"
b00000000000000000000000000000000 E"
b00000000000000000010000000000000 F"
b00000000000000000010000000000000 G"
b00000000000000000000000000001010 H"
b00000000000000000001000000000100 I"
b01 J"
b00000000000000000000000000001010 K"
b00000000000000000001000000000000 L"
b11111111110001001010001100000011 M"
1N"
b00000000000000000010000000000000 P"
b00000000000000000000000000000000 Q"
b00000000000000000000000000001010 R"
